Division,WeightClassKg,Place,Name,Team,BodyweightKg,Best3SquatKg,Best3BenchKg,Best3DeadliftKg,TotalKg,Equipment,Event,Sex
Boys,51.71,1,Anthony Lara,Wolfforth Frenship,51.17,136.08,72.57,167.83,376.48,Single-ply,SBD,M
Boys,51.71,2,Avery Gallegos,Plainview,50.98,124.74,77.11,136.08,337.93,Single-ply,SBD,M
Boys,51.71,3,Juan Trejo,Friona,45,122.47,49.9,136.08,308.44,Single-ply,SBD,M
Boys,51.71,4,Jose Perez #6,Bovina,51.71,108.86,61.23,138.35,308.44,Single-ply,SBD,M
Boys,51.71,5,Bryan Quinteros,Lamesa,51.08,111.13,68.04,113.4,292.57,Single-ply,SBD,M
Boys,51.71,6,Nathan Flores,Friona,49.99,106.59,52.16,115.67,274.42,Single-ply,SBD,M
Boys,51.71,7,David Hildebrand,Seminole,50.53,90.72,54.43,117.93,263.08,Single-ply,SBD,M
Boys,51.71,8,Derek Barron,Muleshoe,43.27,92.99,47.63,102.06,242.67,Single-ply,SBD,M
Boys,55.79,1,Jose Hernandez,Seagraves,55.52,140.61,79.38,154.22,374.21,Single-ply,SBD,M
Boys,55.79,2,Cole Buchanan,Wolfforth Frenship,55.25,88.45,61.23,124.74,274.42,Single-ply,SBD,M
Boys,55.79,3,Cooper Logan,Seminole,54.16,102.06,52.16,115.67,269.89,Single-ply,SBD,M
Boys,55.79,4,Giovanny Ortiz,Lamesa,55.34,70.31,61.23,113.4,244.94,Single-ply,SBD,M
Boys,55.79,DQ,Ramon Zubiate,Denver City,52.71,83.91,,,,Single-ply,SBD,M
Boys,55.79,DQ,Jesus Guerrero,Hart,55.79,,,,,Single-ply,SBD,M
Boys,59.87,1,Luis Trejo,Friona,59.69,199.58,111.13,192.78,503.49,Single-ply,SBD,M
Boys,59.87,2,Zachary Salazar,Lamesa,59.87,170.1,115.67,179.17,464.93,Single-ply,SBD,M
Boys,59.87,3,Miguel Vasquez,Farwell,59.51,167.83,108.86,179.17,455.86,Single-ply,SBD,M
Boys,59.87,4,Bryan de la Torre,Bovina,59.87,170.1,90.72,192.78,453.59,Single-ply,SBD,M
Boys,59.87,5,Kevin Phan,Plainview,59.87,161.03,86.18,172.37,419.57,Single-ply,SBD,M
Boys,59.87,6,Mario Hernandez,Friona,59.42,158.76,88.45,167.83,415.04,Single-ply,SBD,M
Boys,59.87,7,Cysco Barrera,Plainview,57.42,151.95,70.31,172.37,394.63,Single-ply,SBD,M
Boys,59.87,8,Justin Guffey,Seminole,59.15,117.93,72.57,140.61,331.12,Single-ply,SBD,M
Boys,59.87,9,Juan Oltivero,Dimmitt,59.15,102.06,56.7,136.08,294.84,Single-ply,SBD,M
Boys,59.87,10,Deven Perez,Floydada,58.51,106.59,61.23,117.93,285.76,Single-ply,SBD,M
Boys,59.87,11,Anthony Padilla,Friona,59.24,92.99,58.97,117.93,269.89,Single-ply,SBD,M
Boys,59.87,12,Brian Arriaga,Dimmitt,56.06,92.99,68.04,104.33,265.35,Single-ply,SBD,M
Boys,59.87,DQ,Mac Thompson,Ropesville Ropes,59.87,,,,,Single-ply,SBD,M
Boys,67.13,1,Raymon Aranda,Seagraves,66.22,219.99,133.81,229.06,582.87,Single-ply,SBD,M
Boys,67.13,2,Jerry Simental,Seagraves,66.68,165.56,111.13,183.7,460.4,Single-ply,SBD,M
Boys,67.13,3,Michael Lozano,Muleshoe,67.04,181.44,86.18,181.44,449.06,Single-ply,SBD,M
Boys,67.13,4,Gus Garcia,Plainview,63.59,145.15,102.06,165.56,412.77,Single-ply,SBD,M
Boys,67.13,5,Jonathan Alvarez,Odessa Permian,65.59,138.35,104.33,170.1,412.77,Single-ply,SBD,M
Boys,67.13,6,Brendyn LeBlanc,Seminole,61.42,142.88,99.79,163.29,405.97,Single-ply,SBD,M
Boys,67.13,7,Tim Aynes,Lamesa,67.04,161.03,79.38,147.42,387.82,Single-ply,SBD,M
Boys,67.13,8,Marin Santiago,Friona,60.6,149.69,65.77,161.03,376.48,Single-ply,SBD,M
Boys,67.13,9,Hayden McCalib,Wolfforth Frenship,63.41,142.88,65.77,151.95,360.61,Single-ply,SBD,M
Boys,67.13,10,Gerardo Trejo,Friona,63.5,145.15,77.11,136.08,358.34,Single-ply,SBD,M
Boys,67.13,11,Izac Anthony,Levelland,62.6,136.08,70.31,145.15,351.53,Single-ply,SBD,M
Boys,67.13,12,Justin Carrion,Muleshoe,63.59,124.74,77.11,149.69,351.53,Single-ply,SBD,M
Boys,67.13,13,Donald Gibbens,Floydada,66.22,113.4,95.25,133.81,342.46,Single-ply,SBD,M
Boys,67.13,14,Ryan Guffey,Seminole,65.68,113.4,81.65,140.61,335.66,Single-ply,SBD,M
Boys,67.13,15,Hayden Gray,Seminole,67.13,124.74,70.31,133.81,328.85,Single-ply,SBD,M
Boys,67.13,16,Case Dickey,Wolfforth Frenship,59.96,117.93,65.77,133.81,317.51,Single-ply,SBD,M
Boys,67.13,17,Benny Benitez,Lubbock Cooper,64.95,106.59,77.11,127.01,310.71,Single-ply,SBD,M
Boys,67.13,18,Jonathan Nevarez,Levelland,60.78,115.67,61.23,120.2,297.1,Single-ply,SBD,M
Boys,67.13,19,Elisio Maldonado,Lamesa,66.77,106.59,65.77,124.74,297.1,Single-ply,SBD,M
Boys,67.13,20,Braxton Brown,Canyon,66.68,97.52,65.77,113.4,276.69,Single-ply,SBD,M
Boys,67.13,21,Jacob Barron,Muleshoe,60.6,97.52,61.23,113.4,272.16,Single-ply,SBD,M
Boys,67.13,DQ,George Barker,Lamesa,65.68,,,,,Single-ply,SBD,M
Boys,67.13,DQ,Victor Lujan,Plains,65.23,,,,,Single-ply,SBD,M
Boys,67.13,DQ,Bo Franklin,Plains,67.13,,,,,Single-ply,SBD,M
Boys,74.84,1,Taylor Hobbs,Denver City,74.39,192.78,106.59,199.58,498.95,Single-ply,SBD,M
Boys,74.84,2,Gabe Rodriguez,Lubbock Cooper,73.03,174.63,106.59,197.31,478.54,Single-ply,SBD,M
Boys,74.84,3,Ransom Edwards,Seminole,69.4,190.51,90.72,195.04,476.27,Single-ply,SBD,M
Boys,74.84,4,Zeke Bermea,Levelland,74.48,183.7,106.59,167.83,458.13,Single-ply,SBD,M
Boys,74.84,5,Noe Gonzales,Lamesa,73.3,183.7,104.33,161.03,449.06,Single-ply,SBD,M
Boys,74.84,6,Michael Flores,Lamesa,72.94,158.76,88.45,174.63,421.84,Single-ply,SBD,M
Boys,74.84,7,Nicklaus Taft,Wolfforth Frenship,73.03,147.42,74.84,185.97,408.23,Single-ply,SBD,M
Boys,74.84,8,Javier Davila,Denver City,74.12,136.08,113.4,158.76,408.23,Single-ply,SBD,M
Boys,74.84,9,Logan Pipkin,Lubbock Cooper,73.84,140.61,81.65,172.37,394.63,Single-ply,SBD,M
Boys,74.84,10,Mason Brogden,Levelland,70.76,145.15,86.18,158.76,390.09,Single-ply,SBD,M
Boys,74.84,11,Isaac Garza,Levelland,68.49,136.08,86.18,147.42,369.68,Single-ply,SBD,M
Boys,74.84,12,Tyler Hairston,Lubbock Cooper,74.21,151.95,79.38,127.01,358.34,Single-ply,SBD,M
Boys,74.84,13,Luis Rayos,Levelland,70.67,127.01,72.57,149.69,349.27,Single-ply,SBD,M
Boys,74.84,14,Rogelio Palacios,Friona,69.49,111.13,74.84,133.81,319.78,Single-ply,SBD,M
Boys,74.84,15,Nathan Fletcher,Levelland,69.58,102.06,65.77,138.35,306.17,Single-ply,SBD,M
Boys,74.84,DQ,Steven Anna,Plains,74.84,,,,,Single-ply,SBD,M
Boys,82.1,1,Austin Powell,Plainview,81.19,224.53,131.54,231.33,587.4,Single-ply,SBD,M
Boys,82.1,2,Aron Dominguez,Seminole,80.74,208.65,124.74,208.65,542.04,Single-ply,SBD,M
Boys,82.1,3,Ian Alvidrez,Seminole,82.1,181.44,115.67,195.04,492.15,Single-ply,SBD,M
Boys,82.1,4,Estevan Gonzales,Dimmitt,80.65,161.03,104.33,219.99,485.34,Single-ply,SBD,M
Boys,82.1,5,Jacob Eugenis,Wolfforth Frenship,82.1,183.7,88.45,206.38,478.54,Single-ply,SBD,M
Boys,82.1,6,Marco Sanchez,Bovina,80.92,165.56,120.2,188.24,474,Single-ply,SBD,M
Boys,82.1,7,Quinten Johnson,Wolfforth Frenship,80.29,167.83,95.25,190.51,453.59,Single-ply,SBD,M
Boys,82.1,8,Jordan McCullough,Wolfforth Frenship,80.74,149.69,97.52,183.7,430.91,Single-ply,SBD,M
Boys,82.1,9,Julian Flores,Wolfforth Frenship,81.83,149.69,106.59,165.56,421.84,Single-ply,SBD,M
Boys,82.1,10,Cameron Flores,Bovina,79.83,151.95,99.79,167.83,419.57,Single-ply,SBD,M
Boys,82.1,11,Troy Jewell,Lubbock Cooper,81.19,149.69,79.38,170.1,399.16,Single-ply,SBD,M
Boys,82.1,12,Ayden Hayes,Dimmitt,81.83,147.42,81.65,156.49,385.55,Single-ply,SBD,M
Boys,82.1,13,David Moreno,Floydada,75.93,145.15,74.84,158.76,378.75,Single-ply,SBD,M
Boys,82.1,14,Matt Conder,Levelland,78.38,127.01,86.18,165.56,378.75,Single-ply,SBD,M
Boys,82.1,15,Readan Smith,Lubbock Cooper,76.93,147.42,90.72,136.08,374.21,Single-ply,SBD,M
Boys,82.1,16,Ethan Easley,Odessa Permian,79.02,127.01,97.52,147.42,371.95,Single-ply,SBD,M
Boys,82.1,17,Clayton Culp,Lamesa,77.66,124.74,65.77,142.88,333.39,Single-ply,SBD,M
Boys,82.1,18,Logan Abbott,Lubbock Cooper,80.74,113.4,83.91,124.74,322.05,Single-ply,SBD,M
Boys,82.1,19,Ethen Rodruigez,Floydada,76.93,124.74,65.77,129.27,319.78,Single-ply,SBD,M
Boys,82.1,20,Ty Law,Canyon,82.01,113.4,77.11,127.01,317.51,Single-ply,SBD,M
Boys,82.1,21,Ezra Stephens,Friona,80.92,136.08,61.23,117.93,315.25,Single-ply,SBD,M
Boys,82.1,22,Jesus Martinez,Seminole,79.65,108.86,65.77,117.93,292.57,Single-ply,SBD,M
Boys,82.1,DQ,Devin Rodriguez,Seminole,77.2,,,,,Single-ply,SBD,M
Boys,82.1,DQ,Jaime Ceja,Muleshoe,80.56,140.61,,,,Single-ply,SBD,M
Boys,82.1,DQ,Manuel Ramos,Bovina,82.01,174.63,,,,Single-ply,SBD,M
Boys,82.1,DQ,Aaron Mendoza,Denver City,77.93,142.88,102.06,,,Single-ply,SBD,M
Boys,82.1,DQ,Brian Sehon,Ropesville Ropes,82.1,,,,,Single-ply,SBD,M
Boys,89.81,1,Jimmy Rodriguez,Plainview,89.18,235.87,140.61,229.06,605.55,Single-ply,SBD,M
Boys,89.81,2,Jesse Flores,Levelland,83.19,210.92,149.69,181.44,542.04,Single-ply,SBD,M
Boys,89.81,3,Michael Marquez,Levelland,89.54,190.51,117.93,204.12,512.56,Single-ply,SBD,M
Boys,89.81,4,Emmanuel Dominguez,Seminole,85.09,199.58,102.06,208.65,510.29,Single-ply,SBD,M
Boys,89.81,5,Armando Ramos,Levelland,86.82,188.24,115.67,206.38,510.29,Single-ply,SBD,M
Boys,89.81,6,Ryan Rodriguez,Muleshoe,85.64,181.44,99.79,195.04,476.27,Single-ply,SBD,M
Boys,89.81,7,Jacob Quesada,Bovina,83.01,158.76,102.06,192.78,453.59,Single-ply,SBD,M
Boys,89.81,8,Jesus Jaramillo,Friona,89.81,165.56,97.52,190.51,453.59,Single-ply,SBD,M
Boys,89.81,9,Damian Pena,Denver City,87.27,163.29,108.86,179.17,451.32,Single-ply,SBD,M
Boys,89.81,10,Alexis Mendoza,Denver City,85.18,149.69,106.59,183.7,439.98,Single-ply,SBD,M
Boys,89.81,11,Edgar Olvera,Bovina,86.73,154.22,104.33,181.44,439.98,Single-ply,SBD,M
Boys,89.81,12,Cameron Bednarz,Lubbock Cooper,82.83,138.35,102.06,181.44,421.84,Single-ply,SBD,M
Boys,89.81,13,Avery Farmer,Lubbock Cooper,88,151.95,102.06,149.69,403.7,Single-ply,SBD,M
Boys,89.81,14,Luis Franco,Muleshoe,84.82,142.88,83.91,158.76,385.55,Single-ply,SBD,M
Boys,89.81,15,Isaac Carreago,Muleshoe,88.09,124.74,92.99,142.88,360.61,Single-ply,SBD,M
Boys,89.81,16,Andrew Cigarroa,Friona,89.81,136.08,77.11,142.88,356.07,Single-ply,SBD,M
Boys,99.79,1,Carlos Pina,Lubbock Cooper,96.52,244.94,154.22,215.46,614.62,Single-ply,SBD,M
Boys,99.79,2,Randy Mendoza,Plainview,97.89,240.4,138.35,219.99,598.74,Single-ply,SBD,M
Boys,99.79,3,Braden Price,Levelland,97.43,204.12,108.86,242.67,555.65,Single-ply,SBD,M
Boys,99.79,4,Adam Velasco,Denver City,92.62,206.38,140.61,192.78,539.77,Single-ply,SBD,M
Boys,99.79,5,Isaiah Williams,Wolfforth Frenship,97.16,181.44,140.61,217.72,539.77,Single-ply,SBD,M
Boys,99.79,6,Brendon Eminger,Canyon,98.61,226.8,108.86,174.63,510.29,Single-ply,SBD,M
Boys,99.79,7,Khaled Abu-Alghanam,Odessa Permian,92.99,208.65,115.67,183.7,508.02,Single-ply,SBD,M
Boys,99.79,8,Joel Cigarroa,Friona,90.81,213.19,120.2,156.49,489.88,Single-ply,SBD,M
Boys,99.79,9,Christian Perez,Levelland,95.25,210.92,102.06,176.9,489.88,Single-ply,SBD,M
Boys,99.79,10,Marc Prieto,Odessa Permian,99.61,176.9,127.01,181.44,485.34,Single-ply,SBD,M
Boys,99.79,11,Caleb O'Neal,Odessa Permian,99.79,167.83,122.47,192.78,483.08,Single-ply,SBD,M
Boys,99.79,12,Ariel Delgado,Seminole,92.9,188.24,99.79,185.97,474,Single-ply,SBD,M
Boys,99.79,13,Jacob Wilkerson,Odessa Permian,99.61,188.24,120.2,151.95,460.4,Single-ply,SBD,M
Boys,99.79,14,Matt Ramirez,Wolfforth Frenship,99.61,172.37,95.25,192.78,460.4,Single-ply,SBD,M
Boys,99.79,15,Ariel Jaramillo,Friona,91.35,176.9,95.25,185.97,458.13,Single-ply,SBD,M
Boys,99.79,16,Coy Galindo,Wolfforth Frenship,91.35,158.76,86.18,208.65,453.59,Single-ply,SBD,M
Boys,99.79,17,Brenden Schmidt,Wolfforth Frenship,92.53,151.95,86.18,188.24,426.38,Single-ply,SBD,M
Boys,99.79,18,Jakob Nelson,Canyon,94.89,127.01,81.65,181.44,390.09,Single-ply,SBD,M
Boys,99.79,19,Sergio Flores,Friona,90.17,145.15,83.91,154.22,383.29,Single-ply,SBD,M
Boys,99.79,20,Jaxon Washington,Seminole,93.26,145.15,92.99,140.61,378.75,Single-ply,SBD,M
Boys,99.79,21,Jimmy Poyner,Lubbock Cooper,93.98,138.35,90.72,147.42,376.48,Single-ply,SBD,M
Boys,99.79,22,Charlie Law,Canyon,95.62,129.27,92.99,151.95,374.21,Single-ply,SBD,M
Boys,99.79,23,Matthew Fuller,Dimmitt,91.26,124.74,90.72,142.88,358.34,Single-ply,SBD,M
Boys,99.79,DQ,Jared Bella,Friona,99.7,,,,,Single-ply,SBD,M
Boys,99.79,DQ,Hector Pando,Plains,99.79,,,,,Single-ply,SBD,M
Boys,109.77,1,Octavius Vera,Plainview,109.5,292.57,142.88,226.8,662.24,Single-ply,SBD,M
Boys,109.77,2,Jesus Benitez,Lubbock Cooper,103.87,249.48,138.35,226.8,614.62,Single-ply,SBD,M
Boys,109.77,3,O'Ryan Farley,Odessa Permian,108.23,222.26,136.08,249.48,607.81,Single-ply,SBD,M
Boys,109.77,4,Ivan Esquivel,Denver City,109.77,233.6,149.69,206.38,589.67,Single-ply,SBD,M
Boys,109.77,5,Alex Lozano,Denver City,108.95,208.65,136.08,208.65,553.38,Single-ply,SBD,M
Boys,109.77,6,Javier Olvera,Floydada,102.6,188.24,120.2,190.51,498.95,Single-ply,SBD,M
Boys,109.77,7,Ethan Martinez,Lamesa,102.87,183.7,106.59,192.78,483.08,Single-ply,SBD,M
Boys,109.77,8,Jose Valles,Wolfforth Frenship,108.68,156.49,111.13,192.78,460.4,Single-ply,SBD,M
Boys,109.77,9,Ethan Saldana,Lubbock Cooper,109.41,149.69,108.86,185.97,444.52,Single-ply,SBD,M
Boys,109.77,10,Brandon Chambers,Canyon,108.41,158.76,106.59,176.9,442.25,Single-ply,SBD,M
Boys,109.77,11,Nathan Silva,Lubbock Cooper,107.95,149.69,111.13,170.1,430.91,Single-ply,SBD,M
Boys,109.77,12,Jacob Vasquez,Lubbock Cooper,102.6,151.95,106.59,156.49,415.04,Single-ply,SBD,M
Boys,109.77,13,Rudy Ruiz,Muleshoe,101.51,165.56,95.25,151.95,412.77,Single-ply,SBD,M
Boys,109.77,DQ,Alexis Gonzalez,Denver City,104.96,233.6,,,,Single-ply,SBD,M
Boys,124.74,1,Adriel Flores,Plainview,124.19,299.37,147.42,263.08,709.87,Single-ply,SBD,M
Boys,124.74,2,Leo Balderas,Plainview,120.02,276.69,147.42,254.01,678.12,Single-ply,SBD,M
Boys,124.74,3,Even Ybarra,Floydada,117.21,233.6,127.01,213.19,573.79,Single-ply,SBD,M
Boys,124.74,4,Ivien Gonzales,Lamesa,118.57,208.65,142.88,192.78,544.31,Single-ply,SBD,M
Boys,124.74,5,Steven Romero,Floydada,114.67,226.8,106.59,201.85,535.24,Single-ply,SBD,M
Boys,124.74,6,Dillan Allen,Wolfforth Frenship,115.48,192.78,113.4,226.8,532.97,Single-ply,SBD,M
Boys,124.74,7,Bryson White,Odessa Permian,111.67,199.58,113.4,188.24,501.22,Single-ply,SBD,M
Boys,124.74,8,Zach Morgan,Wolfforth Frenship,110.4,185.97,102.06,208.65,496.68,Single-ply,SBD,M
Boys,124.74,9,Pete Vargas,Wolfforth Frenship,111.58,213.19,106.59,176.9,496.68,Single-ply,SBD,M
Boys,124.74,DQ,Ulysses Saucedo,Friona,119.39,,,,,Single-ply,SBD,M
Boys,124.74+,1,Trevor Townsend,Plainview,148.87,276.69,170.1,238.14,684.92,Single-ply,SBD,M
Boys,124.74+,2,Justin Perez,Farwell,128.55,238.14,142.88,201.85,582.87,Single-ply,SBD,M
Boys,124.74+,3,Dawson Reynolds,Odessa Permian,139.34,229.06,138.35,197.31,564.72,Single-ply,SBD,M
Boys,124.74+,4,Gerardo Carrillo,Bovina,135.81,204.12,147.42,206.38,557.92,Single-ply,SBD,M
Boys,124.74+,5,Ethan Smith,Dimmitt,174.09,183.7,97.52,226.8,508.02,Single-ply,SBD,M
Boys,124.74+,6,Tanner Wilson,Canyon,157.49,136.08,90.72,154.22,381.02,Single-ply,SBD,M
Boys,124.74+,7,Travis Flinchbaugh,Lubbock Cooper,131.81,129.27,88.45,161.03,378.75,Single-ply,SBD,M
Boys,124.74+,DQ,Abiel Flores,Ropesville Ropes,126.1,,,,,Single-ply,SBD,M
