Division,WeightClassKg,Place,Name,Team,BodyweightKg,Best3SquatKg,Best3BenchKg,Best3DeadliftKg,TotalKg,Equipment,Event,Sex
Girls,44.23,1,Jessica Taylor,Gilmer,42.37,97.52,49.9,102.06,249.48,Single-ply,SBD,F
Girls,47.85,1,Annika Nittmo,Winnsboro,47.36,131.54,63.5,133.81,328.85,Single-ply,SBD,F
Girls,47.85,2,Karina Castillo,Gilmer,45.9,115.67,65.77,124.74,306.17,Single-ply,SBD,F
Girls,47.85,3,Betsy Ramirez,Winnsboro,46.72,122.47,65.77,106.59,294.84,Single-ply,SBD,F
Girls,47.85,4,Grace Ritter,Gilmer,46.81,92.99,49.9,104.33,247.21,Single-ply,SBD,F
Girls,47.85,5,Ella Pearson,Diana New Diana,46.81,102.06,40.82,95.25,238.14,Single-ply,SBD,F
Girls,47.85,6,Saylor Jasper,Gladewater Union Grove,44.63,88.45,43.09,90.72,222.26,Single-ply,SBD,F
Girls,51.94,1,Jaelan Linville,Mount Enterprise,51.71,115.67,79.38,117.93,312.98,Single-ply,SBD,F
Girls,51.94,2,Hanna Richison,Winnsboro,50.89,108.86,61.23,122.47,292.57,Single-ply,SBD,F
Girls,51.94,3,Brinkley Rash,Gilmer,51.44,111.13,61.23,117.93,290.3,Single-ply,SBD,F
Girls,51.94,4,Kailey Griffith,Gilmer,49.71,108.86,61.23,113.4,283.5,Single-ply,SBD,F
Girls,51.94,5,Karen Aragon,Winnsboro,51.89,102.06,52.16,120.2,274.42,Single-ply,SBD,F
Girls,51.94,6,Rilee Stew,Redwater,51.53,99.79,63.5,106.59,269.89,Single-ply,SBD,F
Girls,51.94,7,Emileigh Dickens,Redwater,50.8,92.99,54.43,95.25,242.67,Single-ply,SBD,F
Girls,51.94,8,Maddie Clowers,Gladewater Union Grove,50.98,97.52,52.16,92.99,242.67,Single-ply,SBD,F
Girls,51.94,9,Esmeralda Bermea,Winnsboro,51.07,86.18,54.43,95.25,235.87,Single-ply,SBD,F
Girls,51.94,10,Natalie Salaises,Gilmer Union Hill,48.08,88.45,47.63,90.72,226.8,Single-ply,SBD,F
Girls,56.02,1,Karla Fuentes,Winnsboro,54.25,133.81,74.84,147.42,356.07,Single-ply,SBD,F
Girls,56.02,2,Victoria Urquidez,Gilmer,53.71,127.01,74.84,133.81,335.66,Single-ply,SBD,F
Girls,56.02,3,Madi Newman,Gladewater Union Grove,54.88,129.27,77.11,122.47,328.85,Single-ply,SBD,F
Girls,56.02,4,Annie Stevenson,Gilmer,55.7,133.81,54.43,131.54,319.78,Single-ply,SBD,F
Girls,56.02,5,Sela Aguilar,Gladewater Union Grove,53.71,117.93,72.57,117.93,308.44,Single-ply,SBD,F
Girls,56.02,6,Samantha Collier,Gilmer Union Hill,52.34,122.47,58.97,115.67,297.1,Single-ply,SBD,F
Girls,56.02,7,Samantha Martinez,Winnsboro,54.52,102.06,61.23,102.06,265.35,Single-ply,SBD,F
Girls,56.02,8,Sofia Munoz,Quinlan Boles,54.07,106.59,49.9,97.52,254.01,Single-ply,SBD,F
Girls,56.02,9,Sonia Santos,Winnsboro,55.52,99.79,43.09,95.25,238.14,Single-ply,SBD,F
Girls,56.02,10,Paulina Nava,Winnsboro,55.07,81.65,45.36,90.72,217.72,Single-ply,SBD,F
Girls,56.02,11,Angel Blalock,Queen City,53.34,77.11,31.75,90.72,199.58,Single-ply,SBD,F
Girls,60.1,1,Danie Jones,Winnsboro,58.69,133.81,88.45,142.88,365.14,Single-ply,SBD,F
Girls,60.1,2,Kinzie Williams,Winnsboro,59.96,136.08,77.11,145.15,358.34,Single-ply,SBD,F
Girls,60.1,3,Micah Monday,Winnsboro,58.79,142.88,70.31,131.54,344.73,Single-ply,SBD,F
Girls,60.1,4,Cassidy Olazabal,Diana New Diana,58.88,138.35,56.7,124.74,319.78,Single-ply,SBD,F
Girls,60.1,5,Sydeny Bell,Gilmer,58.69,122.47,49.9,136.08,308.44,Single-ply,SBD,F
Girls,60.1,6,Dioseny Mejia,Gilmer Union Hill,57.97,104.33,54.43,131.54,290.3,Single-ply,SBD,F
Girls,60.1,7,Carlie Rogers,Diana New Diana,59.24,127.01,49.9,113.4,290.3,Single-ply,SBD,F
Girls,60.1,8,Sara Deygas,Winnsboro,59.6,90.72,43.09,113.4,247.21,Single-ply,SBD,F
Girls,60.1,9,Chyenne Kimbrell,Hawkins,59.87,92.99,36.29,108.86,238.14,Single-ply,SBD,F
Girls,60.1,10,Dusti Click,Big Sandy Harmony,57.79,83.91,47.63,95.25,226.8,Single-ply,SBD,F
Girls,60.1,11,Skyla Craig,Laird Hill Leveretts Chapel,58.79,81.65,38.56,102.06,222.26,Single-ply,SBD,F
Girls,60.1,12,Lailiyn Wilkerson,Big Sandy Harmony,57.88,79.38,31.75,95.25,206.38,Single-ply,SBD,F
Girls,67.36,1,Cierra Anderson,Gilmer,62.41,149.69,65.77,131.54,347,Single-ply,SBD,F
Girls,67.36,2,Ashley Walker,Tyler Lee,66.41,108.86,43.09,115.67,267.62,Single-ply,SBD,F
Girls,67.36,3,Taylor Colbert,Gilmer Union Hill,62.6,104.33,47.63,113.4,265.35,Single-ply,SBD,F
Girls,67.36,4,Emily Jones,Mineola,64.32,97.52,56.7,104.33,258.55,Single-ply,SBD,F
Girls,67.36,5,Erica Jones,Queen City,61.69,88.45,38.56,120.2,247.21,Single-ply,SBD,F
Girls,67.36,6,Reanna Rogers,Gilmer Union Hill,61.51,97.52,40.82,95.25,233.6,Single-ply,SBD,F
Girls,67.36,7,Makayla Thomas,Pittsburg,64.41,95.25,40.82,88.45,224.53,Single-ply,SBD,F
Girls,67.36,8,McKenzie Hathcoat,Pittsburg,65.95,83.91,34.02,90.72,208.65,Single-ply,SBD,F
Girls,67.36,9,Haley Wigington,Big Sandy Harmony,61.96,72.57,40.82,90.72,204.12,Single-ply,SBD,F
Girls,75.07,1,Ariquna Wilson,Laird Hill Leveretts Chapel,73.75,124.74,54.43,115.67,294.84,Single-ply,SBD,F
Girls,75.07,2,Lexi Latham,Gilmer Union Hill,67.68,111.13,43.09,111.13,265.35,Single-ply,SBD,F
Girls,75.07,3,Abby Watkins,Queen City,71.03,97.52,52.16,115.67,265.35,Single-ply,SBD,F
Girls,75.07,4,Abbi Harkness,Diana New Diana,68.67,108.86,45.36,108.86,263.08,Single-ply,SBD,F
Girls,75.07,5,Molly Vaughn,Winnsboro,71.94,102.06,58.97,97.52,258.55,Single-ply,SBD,F
Girls,75.07,6,Katiann Kinnett,Tyler Lee,72.94,92.99,45.36,115.67,254.01,Single-ply,SBD,F
Girls,75.07,7,Kailey Giles,Queen City,69.67,90.72,40.82,99.79,231.33,Single-ply,SBD,F
Girls,75.07,8,Cherish Ashcraft,Pittsburg,72.3,81.65,40.82,90.72,213.19,Single-ply,SBD,F
Girls,75.07,9,Alyssia Hathcoat,Pittsburg,68.86,79.38,34.02,86.18,199.58,Single-ply,SBD,F
Girls,82.33,1,Marshae Davis,Gilmer,80.1,163.29,90.72,170.1,424.11,Single-ply,SBD,F
Girls,82.33,2,Katie Melton,Gladewater Union Grove,75.75,154.22,83.91,129.27,367.41,Single-ply,SBD,F
Girls,82.33,3,Kat Ragatz,Winnsboro,79.83,129.27,77.11,127.01,333.39,Single-ply,SBD,F
Girls,82.33,4,Macey Belote,Queen City,78.2,115.67,43.09,136.08,294.84,Single-ply,SBD,F
Girls,82.33,5,Shelby Ward,Big Sandy Harmony,81.01,115.67,52.16,122.47,290.3,Single-ply,SBD,F
Girls,82.33,6,Amber Largent,Hawkins,81.19,108.86,54.43,106.59,269.89,Single-ply,SBD,F
Girls,82.33,7,Alia Garrison,Pittsburg,81.83,74.84,36.29,102.06,213.19,Single-ply,SBD,F
Girls,82.33,8,Caitlin Ewings,Big Sandy Harmony,78.38,77.11,34.02,95.25,206.38,Single-ply,SBD,F
Girls,90.04,1,Alyssa Clements,Queen City,88.18,151.95,54.43,136.08,342.46,Single-ply,SBD,F
Girls,90.04,2,Amanda Torres,Hawkins,88.9,122.47,54.43,142.88,319.78,Single-ply,SBD,F
Girls,90.04,3,Aubrey Williamson,Laird Hill Leveretts Chapel,84.1,122.47,58.97,117.93,299.37,Single-ply,SBD,F
Girls,100.02,1,Mah'Layzga Johnson,Tyler Lee,93.53,147.42,77.11,156.49,381.02,Single-ply,SBD,F
Girls,100.02,2,Arivell Guzman,Tyler Lee,93.71,145.15,54.43,142.88,342.46,Single-ply,SBD,F
Girls,100.02,3,Elsa Viecente,Big Sandy Harmony,98.88,115.67,49.9,115.67,281.23,Single-ply,SBD,F
Girls,100.02,4,Emily Porter,Big Sandy Harmony,92.99,111.13,52.16,115.67,278.96,Single-ply,SBD,F
Girls,100.02,5,Shelbee Prazak,Diana New Diana,90.36,117.93,49.9,104.33,272.16,Single-ply,SBD,F
Girls,100.02,6,Lezlie Smith,Hawkins,97.34,72.57,36.29,102.06,210.92,Single-ply,SBD,F
Girls,117.71,1,Mya Rose,Hawkins,110.77,122.47,56.7,142.88,322.05,Single-ply,SBD,F
Girls,117.71,2,Garyn Short,Pittsburg,102.78,117.93,54.43,127.01,299.37,Single-ply,SBD,F
Girls,117.71,3,Hailey Herington,Winnsboro,103.33,111.13,49.9,106.59,267.62,Single-ply,SBD,F
Girls,117.71,DQ,Shanna Jones,Gilmer,117.21,,,,,Single-ply,SBD,F
Girls,117.71+,1,Ga'Brella Billington,Tyler Lee,139.8,154.22,90.72,151.95,396.89,Single-ply,SBD,F
Girls,117.71+,2,Makailah McConnell,Gilmer,128.64,142.88,90.72,147.42,381.02,Single-ply,SBD,F
Girls,117.71+,3,Shayla Mosley,Tyler Lee,131.72,111.13,70.31,129.27,310.71,Single-ply,SBD,F
Girls,117.71+,4,Derranique Lewis,Marshall,146.42,133.81,61.23,111.13,306.17,Single-ply,SBD,F
