Name,Age,Sex,Division,Equipment,BodyweightKg,WeightClassKg,Squat1Kg,Squat2Kg,Squat3Kg,Best3SquatKg,Squat4Kg,Bench1Kg,Bench2Kg,Bench3Kg,Best3BenchKg,Deadlift1Kg,Deadlift2Kg,Deadlift3Kg,Best3DeadliftKg,Deadlift4Kg,TotalKg,Event,Place
Hanne Bingle,,F,Open,Multi-ply,93.3,90+,130,140,-150,140,,90,97.5,-102.5,97.5,130,140,-145,140,,377.5,SBD,1
Leslie Watson,,F,Open,Multi-ply,45.8,48,80,90,100,100,,60,65,-67.5,65,100,105,110,110,,275,SBD,1
Janine Murphy,,F,Open,Multi-ply,74.8,75,-160,-170,170,170,,90,97.5,-102.5,97.5,160,170,-185,170,,437.5,SBD,1
Tara McKay,,F,Open,Multi-ply,76.4,82.5,100,-110,110,110,,45,52.5,-57.5,52.5,100,110,-120,110,,272.5,SBD,1
Tony Hales,,M,Open,Multi-ply,93.9,100,-290,,,,,-180,,,,-240,,,,,,SBD,DQ
Mike Jones #9,,M,Open,Multi-ply,99.3,100,345,-365,365,365,,-195,-215,-215,,-325,,,,,,SBD,DQ
Azer Aliyev,,M,Open,Multi-ply,95.8,100,180,190,200,200,,-130,130,140,140,190,205,215,215,,555,SBD,8
Robert Graham,,M,Open,Multi-ply,96.7,100,290,-310,-310,290,,150,170,-185,170,200,220,-240,220,,680,SBD,7
Colin Foulser,,M,Open,Multi-ply,94.8,100,250,275,,275,,130,145,,145,235,275,305,305,,725,SBD,6
James Copping,,M,Open,Multi-ply,99.9,100,320,340,,340,,150,165,180,180,282.5,300,-317.5,300,,820,SBD,5
Josh Hill,,M,Open,Multi-ply,98.5,100,280,300,320,320,,200,220,-235,220,280,295,-300,295,,835,SBD,4
Mark Cullimore,,M,Open,Multi-ply,99.9,100,365,-405,-405,365,,225,235,-245,235,290,-310,-317.5,290,,890,SBD,3
Paul Newell,,M,Open,Multi-ply,99.5,100,375,400,-421,400,,200,210,-215,210,280,-300,-307.5,280,,890,SBD,2
Eddie Bitek,,M,Open,Multi-ply,98.9,100,340,-360,360,360,,220,240,255,255,280,300,-310,300,,915,SBD,1
Daniel Mehmet,,M,Open,Multi-ply,109.2,110,,,,,,-275,-280,-280,,,,,,,,B,DQ
Pavol Hidasy,,M,Open,Multi-ply,107.8,110,,,,,,-210,-210,-210,,,,,,,,B,DQ
Jamie Williams,,M,Open,Multi-ply,106.5,110,300,325,340,340,,180,-195,195,195,300,315,-325,315,,850,SBD,7
Luke Healey,,M,Open,Multi-ply,105,110,260,290,-310,290,,160,-180,180,180,260,290,310,310,,780,SBD,12
Lee Price,,M,Open,Multi-ply,102.5,110,310,-335,-335,310,,200,210,-220,210,260,-280,,260,,780,SBD,11
Tim McIlhinney,,M,Open,Multi-ply,110,110,290,315,335,335,,170,180,190,190,275,-290,-290,275,,800,SBD,10
Keith Ellis,,M,Open,Multi-ply,110,110,335,-365,-400,335,,-175,175,-195,175,260,290,-320,290,,800,SBD,9
Owain Kite,,M,Open,Multi-ply,106.4,110,310,-330,-330,310,,205,215,-225,215,280,-300,,280,,805,SBD,8
Martin Brown,,M,Open,Multi-ply,105.7,110,300,330,345,345,,190,205,-215,205,280,300,-310,300,,850,SBD,6
Alan Luker,,M,Open,Multi-ply,106.3,110,330,360,,360,,165,172.5,177.5,177.5,300,322.5,-332.5,322.5,,860,SBD,5
Dave Squires,,M,Open,Multi-ply,108.6,110,340,365,-380,365,,215,230,240,240,300,312.5,-337.5,312.5,,917.5,SBD,4
Steven Middleton-Lowes,,M,Open,Multi-ply,110,110,350,380,-390,380,,230,245,-252.5,245,290,315,-330,315,,940,SBD,3
Craig Coombes,,M,Open,Multi-ply,109.3,110,400,425,-445,425,,280,-290,-300,280,300,320,-352.5,320,,1025,SBD,2
Delroy McQueen,,M,Open,Multi-ply,108.8,110,420,435,445,445,,220,230,240,240,350,370,-382.5,370,,1055,SBD,1
Carl Rogers,,M,Open,Multi-ply,121.9,125,,,,,,-215,215,-257.5,215,,,,,,215,B,2
Lee Alberts,,M,Open,Multi-ply,123.2,125,,,,,,250,257.5,-267.5,257.5,,,,,,257.5,B,1
Johnnie Kiss,,M,Open,Multi-ply,124.6,125,-390,-410,,,,-250,,,,-300,,,,,,SBD,DQ
Ian Rutherford,,M,Open,Multi-ply,124.5,125,-345,-375,-375,,,225,-265,-267.5,225,-310,,,,,,SBD,DQ
Anthony Scott,,M,Open,Multi-ply,112.9,125,180,220,,220,,170,200,-260,200,180,220,250,250,,670,SBD,8
James Godber,,M,Open,Multi-ply,112.6,125,230,255,-275,255,,-155,155,-167.5,155,250,-260,260,260,,670,SBD,7
Oliver Clements,,M,Open,Multi-ply,116.2,125,285,-320,-320,285,,165,175,-182.5,175,220,240,250,250,,710,SBD,6
Glenn McLaren,,M,Open,Multi-ply,119.4,125,240,-260,-260,240,,180,190,200,200,270,280,-285,280,,720,SBD,5
Michael Adams,,M,Open,Multi-ply,121,125,310,-330,330,330,,210,222.5,-230,222.5,280,-300,,280,,832.5,SBD,4
Graham Mattison,,M,Open,Multi-ply,122.9,125,340,-362.5,362.5,362.5,,220,235,245,245,280,-310,-310,280,,887.5,SBD,3
Ben Williams,,M,Open,Multi-ply,119,125,-400,400,-430,400,,220,-245,-245,220,290,310,-320,310,,930,SBD,2
Marcus Griffiths,,M,Open,Multi-ply,116.3,125,360,400,420,420,,-220,-220,220,220,310,-330,-330,310,,950,SBD,1
Dave Beattie,,M,Open,Multi-ply,136.2,140,-455,-455,-462.5,,,282.5,-300,-300,282.5,-230,,,,,,SBD,DQ
Lloyd Strang,,M,Open,Multi-ply,132.4,140,200,,,200,,250,-285,-285,250,75,,,75,,525,SBD,3
Gary Bamsey,,M,Open,Multi-ply,126,140,300,350,-380,350,,115,-150,,115,250,-280,,250,,715,SBD,2
Jim Nuttall,,M,Open,Multi-ply,139.2,140,-410,410,-430,410,,277.5,292.5,-300,292.5,325,-355,-355,325,,1027.5,SBD,1
Glenn Ross,,M,Open,Multi-ply,200,140+,320,340,360,360,,-240,240,260,260,-380,-380,-380,,,,SBD,DQ
Donnie Thompson #1,,M,Open,Multi-ply,171.9,140+,-485,-530,-530,,,-365,,,,-342.5,,,,,,SBD,DQ
Andy Bolton,,M,Open,Multi-ply,158.7,140+,-485,-500,500,500,,275,285,-295,285,370,415,-455.5,415,,1200,SBD,1
Steven Scoular,,M,Open,Multi-ply,52.2,56,-140,140,-150,140,,70,-80,80,80,160,170,180,180,,400,SBD,1
Barrie Brown,,M,Open,Multi-ply,60,60,125,137.5,142.5,142.5,151,25,,,25,120,130,-137.5,130,,297.5,SBD,1
Alan Collins,,M,Open,Multi-ply,66.2,67.5,,,,,,-132.5,132.5,,132.5,,,,,,132.5,B,1
Budgie Mullan,,M,Open,Multi-ply,66.7,67.5,100,120,135,135,,80,87.5,-92.5,87.5,100,135,150,150,,372.5,SBD,2
Andrew Adams #1,,M,Open,Multi-ply,65.5,67.5,-240,240,250,250,,130,-140,140,140,225,-235,235,235,,625,SBD,1
Lee Gordon,,M,Open,Multi-ply,74.9,75,280,310,-322.5,310,,25,,,25,65,,,65,,400,SBD,4
Michael Flynn,,M,Open,Multi-ply,71.6,75,110,130,-140,130,,100,-120,-120,100,160,172.5,180,180,,410,SBD,3
Callum Cook,,M,Open,Multi-ply,70.4,75,240,-260,-260,240,,135,145,155,155,180,200,220,220,,615,SBD,2
Andy Csiszar,,M,Open,Multi-ply,74,75,280,290,300,300,,165,175,,175,240,260,285,285,301,760,SBD,1
Zsolt Borbas,,M,Open,Multi-ply,80.7,82.5,,,,,,180,190,-200,190,,,,,,190,B,1
Lee Cutler,,M,Open,Multi-ply,80.3,82.5,320,-330,330,330,,-182,-182.5,-182.5,,-300,,,,,,SBD,DQ
Yaman Mustafa,,M,Open,Multi-ply,81.2,82.5,215,-225,225,225,,150,160,-165,160,215,230,-240,230,,615,SBD,6
Ash Fletcher,,M,Open,Multi-ply,80.6,82.5,240,-260,272.5,272.5,,150,157.5,162.5,162.5,230,245,-272.5,245,,680,SBD,5
Neil Arnold,,M,Open,Multi-ply,82.1,82.5,-270,270,285,285,,165,-175,175,175,220,230,-240,230,,690,SBD,4
Ian Humphries,,M,Open,Multi-ply,81.7,82.5,-300,300,-315,300,,180,-192.5,192.5,192.5,225,-242.5,-242.5,225,,717.5,SBD,3
Curtis Arnold,,M,Open,Multi-ply,81,82.5,-270,270,285,285,,180,-190,190,190,230,247.5,255,255,,730,SBD,2
Kevin Smith #24,,M,Open,Multi-ply,81.8,82.5,280,300,320,320,,170,-190,190,190,230,240,245,245,,755,SBD,1
Neil Deighton,,M,Open,Multi-ply,89.8,90,,,,,,272.5,280,286,286,,,,,,286,B,1
Daniel Cook #3,,M,Open,Multi-ply,85.4,90,-220,-220,-220,,,-120,,,,-200,,,,,,SBD,DQ
Chris Jenkins #8,,M,Open,Multi-ply,89.2,90,320,345,-362.5,345,,-210,-210,-210,,-310,,,,,,SBD,DQ
Jon Bamsey,,M,Open,Multi-ply,83,90,-130,130,150,150,,80,-100,-100,80,140,180,-200,180,,410,SBD,7
Adam Brooks,,M,Open,Multi-ply,88.4,90,290,-305,,290,,170,180,187.5,187.5,240,260,-270,260,,737.5,SBD,4
Mat Howel-Reeve,,M,Open,Multi-ply,90.2,100,250,-275,-280,250,,150,-170,-170,150,190,220,-230,220,,620,SBD,6
Roni Gordon,,M,Open,Multi-ply,88.6,90,265,-280,-285,265,,170,180,182.5,182.5,265,280,290,290,,737.5,SBD,5
Steve Plunkett,,M,Open,Multi-ply,88.7,90,290,305,-320,305,,185,-202.5,-210,185,230,250,-260,250,,740,SBD,3
Patrick Griffin #1,,M,Open,Multi-ply,88.6,90,270,285,300,300,,200,210,220,220,240,255,265,265,,785,SBD,2
Gareth Davies,,M,Open,Multi-ply,89.4,90,300,325,352.5,352.5,,-220,220,245,245,280,307.5,320,320,,917.5,SBD,1
