JapaneseName,Name,BirthYear,Sex,BodyweightKg,WeightClassKg,Bench1Kg,Bench2Kg,Bench3Kg,Best3BenchKg,TotalKg,Event,Equipment,Division,Place
山下 彩,Aya Yamashita,1986,F,60.6,63,-100,110,-120,110,110,B,Single-ply,Open,1
白石 匡,,1980,M,58.2,59,135,145,-150,145,145,B,Single-ply,Open,1
吉本 大秀,,1973,M,58.8,59,130,140,-150,140,140,B,Single-ply,Open,2
木下 俊弘,,1947,M,58.55,59,70,,,70,70,B,Single-ply,Open,3
土田真臣,,1996,M,65.15,66,165,175,182.5,182.5,182.5,B,Single-ply,Open,1
松野 翼,,1984,M,64.7,66,140,-152.5,-152.5,140,140,B,Single-ply,Open,2
高塚 千豪,,1994,M,63.7,66,105,110,-117.5,110,110,B,Single-ply,Open,3
石川 貴康,,1974,M,65.7,66,-147.5,-147.5,-147.5,,,B,Single-ply,Open,DQ
三島 忠,Tadashi Mishima,1962,M,73.7,74,-220,220,-230,220,220,B,Single-ply,Open,1
広永 賢司,,1984,M,71,74,160,-170,-185,160,160,B,Single-ply,Open,2
中畑 俊朗,,1947,M,71.7,74,70,85,-90,85,85,B,Single-ply,Open,3
山下 卓也,,1968,M,81.45,83,170,180,-185,180,180,B,Single-ply,Open,1
大浦 正明,,1980,M,82.9,83,135,142.5,-150,142.5,142.5,B,Single-ply,Open,2
植田 篤,,1975,M,,93,,,,,,B,Single-ply,Open,NS
宮本 崇行,,1973,M,89.75,93,-260,-260,-260,,,B,Single-ply,Open,DQ
西野 渉,,1971,M,,93,,,,,,B,Single-ply,Open,NS
山下 保樹,Yasuki Yamashita,1991,M,104.7,105,275,-300,300,300,300,B,Single-ply,Open,1
上田 真司,Shinji Ueda,1972,M,117.65,120,310,320,330,330,330,B,Single-ply,Open,1
梶井 俊宏,Toshihiro Kajii,1980,M,113.6,120,-310,-320,-320,,,B,Single-ply,Open,DQ
山下 彩,Aya Yamashita,1986,F,60.6,63,85,92.5,-95,92.5,92.5,B,Raw,Open,1
白石 佳子,,1968,F,69.7,72,47.5,52.5,-55,52.5,52.5,B,Raw,Open,1
岸本 将司,,1993,M,58.6,59,-122.5,122.5,-127.5,122.5,122.5,B,Raw,Open,1
藤川 龍司,,1964,M,58,59,80,85,-90,85,85,B,Raw,Open,2
木下 俊弘,,1947,M,58.55,59,70,80,85,85,85,B,Raw,Open,3
大村 茂則,,1959,M,65,66,120,-130,-130,120,120,B,Raw,Open,1
川浦 幸次,,1964,M,63.35,66,105,112.5,-115,112.5,112.5,B,Raw,Open,2
新田 幸治,,1947,M,65,66,100,105,-110,105,105,B,Raw,Open,3
高橋 磨,,1966,M,64.6,66,102.5,-105,-105,102.5,102.5,B,Raw,Open,4
古田 晴彦,,1959,M,72.95,74,137.5,142.5,145,145,145,B,Raw,Open,1
今野 一朗,,1982,M,72.3,74,117.5,-125,-125,117.5,117.5,B,Raw,Open,2
奥 康佑,,1982,M,67.45,74,105,110,-115,110,110,B,Raw,Open,3
宮武 義人,,1957,M,70.25,74,100,105,110,110,110,B,Raw,Open,4
木本 玄修,,1955,M,72,74,105,110,-115,110,110,B,Raw,Open,5
牧村 潤,,1961,M,72.5,74,105,-110,110,110,110,B,Raw,Open,6
み心 真也,,1957,M,72.9,74,105,-110,-110,105,105,B,Raw,Open,7
生田 禎明,,1968,M,70.3,74,85,95,-100,95,95,B,Raw,Open,8
奥 拓也,,1984,M,68.25,74,80,85,90,90,90,B,Raw,Open,9
成瀬 利権,,1965,M,71.6,74,75,80,-85,80,80,B,Raw,Open,10
中畑 俊朗,,1947,M,71.7,74,65,75,-85,75,75,B,Raw,Open,11
末永 龍星,,2002,M,72.65,74,-50,50,65,65,65,B,Raw,Open,12
児玉 大紀,Daiki Kodama,1979,M,75.3,83,185,200,210,210,210,B,Raw,Open,1
村上 恵造,,1973,M,82.8,83,160,170,180,180,180,B,Raw,Open,2
久保田 淳,,1976,M,83,83,165,172.5,-180,172.5,172.5,B,Raw,Open,3
桑原 和也.,,1988,M,81.65,83,150,-155,155,155,155,B,Raw,Open,4
石橋 隆晃,,1972,M,78.55,83,142.5,147.5,152.5,152.5,152.5,B,Raw,Open,5
古田土 賢大,,1987,M,81.9,83,140,-147.5,147.5,147.5,147.5,B,Raw,Open,6
井上 隆治,,1971,M,82.6,83,130,135,-137.5,135,135,B,Raw,Open,7
井上 謙一,,1957,M,77.7,83,-125,125,132.5,132.5,132.5,B,Raw,Open,8
呉 漢洙,,1959,M,75.05,83,125,130,-135,130,130,B,Raw,Open,9
紺野 仁教,,1972,M,79.4,83,125,130,-135,130,130,B,Raw,Open,10
松田健志,,1969,M,79.8,83,125,-130,-130,125,125,B,Raw,Open,11
三浦 雄一朗,,1989,M,81.9,83,115,120,125,125,125,B,Raw,Open,12
塩谷 勝也,,1974,M,80.95,83,105,115,-117.5,115,115,B,Raw,Open,13
山崎 康博,,1973,M,78.8,83,110,-120,-120,110,110,B,Raw,Open,14
張 孝鎮,,1957,M,80.05,83,95,105,-107.5,105,105,B,Raw,Open,15
鷹野 和美,,1957,M,81.8,83,85,90,-95,90,90,B,Raw,Open,16
田口 充宏,,1964,M,91.55,93,155,162.5,165,165,165,B,Raw,Open,1
り一デッ久ラン,,1995,M,89.6,93,110,115,120,120,120,B,Raw,Open,2
品川 哲也,,1982,M,84.05,93,110,117.5,-122.5,117.5,117.5,B,Raw,Open,3
太田 孝美,,1946,M,89.65,93,90,105,107.5,107.5,107.5,B,Raw,Open,4
山下 保樹,Yasuki Yamashita,1991,M,104.7,105,190,200,205,205,205,B,Raw,Open,1
中澤 禎郁,,1966,M,97.25,105,160,170,-180,170,170,B,Raw,Open,2
吉野 憲二,,1972,M,102.7,105,140,150,155,155,155,B,Raw,Open,3
井上 健,,1970,M,106.35,120,165,-175,-175,165,165,B,Raw,Open,1
