Place,Name,Sex,Event,Division,Equipment,BirthYear,State,WeightClassKg,BodyweightKg,Squat1Kg,Squat2Kg,Squat3Kg,Best3SquatKg,Bench1Kg,Bench2Kg,Bench3Kg,Best3BenchKg,Deadlift1Kg,Deadlift2Kg,Deadlift3Kg,Best3DeadliftKg,TotalKg
1,Nicole Dixon,F,SBD,FR-O,Raw,1983,AK,72,65.6,95,-97.5,100,100,-67.5,67.5,70,70,117.5,122.5,-130,122.5,292.5
2,Rebekah Pollard,F,SBD,FR-O,Raw,1978,AK,84+,89,-92.5,-92.5,92.5,92.5,52.5,55,-57.5,55,115,-117.5,-117.5,115,262.5
1,Ryan Carrillo,M,SBD,M-O,Single-ply,1991,AK,120+,161.2,100,-102.5,-102.5,100,130,-150,-150,130,-280,280,-282.5,280,510
1,Brendon Seiffert,M,SBD,MR-O,Raw,1991,AK,93,92.8,-107.5,125,127.5,127.5,92.5,-100,-100,92.5,142.5,147.5,-172.5,147.5,367.5
1,Hamilton Cox,M,SBD,MR-T,Raw,2001,AK,105,93.4,170,185,195,195,120,-135,-135,120,140,145,150,150,465
2,Luke Lockard,M,SBD,MR-T,Raw,2000,AK,83,77.9,97.5,105,117.5,117.5,92.5,100,-102.5,100,-185,185,197.5,197.5,415
DQ,Thomas Kusserow-Yeargan,M,SBD,MR-T,Raw,2001,AK,74,67.3,137.5,145,160,160,97.5,105,-107.5,105,160,170,172.5,172.5,
1,Liam Lockard,M,SBD,MR-Y,Raw,2005,AK,48,47.5,60,67.5,70,70,42.5,47.5,-50,47.5,92.5,102.5,-105,102.5,220
