Division,WeightClassKg,Place,Name,Team,BodyweightKg,Best3SquatKg,Best3BenchKg,Best3DeadliftKg,TotalKg,Equipment,Event,Sex
Boys,55.79,1,Zach Sasser,Lake Dallas,53.34,74.84,49.9,90.72,215.46,Single-ply,SBD,M
Boys,55.79,2,Kevin Roman,Carrollton Turner,53.25,88.45,45.36,68.04,201.85,Single-ply,SBD,M
Boys,55.79,3,Jacob Sepulveda,Lake Dallas,54.88,77.11,20.41,90.72,188.24,Single-ply,SBD,M
Boys,67.13,1,Anson Truong,Lake Dallas,60.1,111.13,63.5,129.27,303.91,Single-ply,SBD,M
Boys,59.87,2,Adam Tipps,Lake Dallas,59.6,113.4,61.23,124.74,299.37,Single-ply,SBD,M
Boys,67.13,1,Matt Stockard,Lake Dallas,65.41,142.88,88.45,154.22,385.55,Single-ply,SBD,M
Boys,67.13,2,Alan Garcia,Carrollton Turner,66.32,136.08,88.45,138.35,362.87,Single-ply,SBD,M
Boys,67.13,3,Brendan Contreras,Lake Dallas,64.41,131.54,72.57,156.49,360.61,Single-ply,SBD,M
Boys,67.13,4,Jarrod Mariano,Carrollton Ranchview,66.86,113.4,83.91,127.01,324.32,Single-ply,SBD,M
Boys,67.13,5,Kolby Davis,Lake Dallas,66.04,102.06,77.11,120.2,299.37,Single-ply,SBD,M
Boys,67.13,6,Victor Piniero,Carrollton Creekview,66.68,97.52,63.5,108.86,269.89,Single-ply,SBD,M
Boys,67.13,7,Jeff Skinner,Lake Dallas,65.68,79.38,54.43,70.31,204.12,Single-ply,SBD,M
Boys,74.84,1,Jaylon Norman,Carrollton Ranchview,71.58,145.15,106.59,188.24,439.98,Single-ply,SBD,M
Boys,74.84,2,Jacob Gamez,Carrollton Turner,72.03,136.08,92.99,174.63,403.7,Single-ply,SBD,M
Boys,74.84,3,Jesus Margan,Carrollton Turner,69.76,115.67,79.38,154.22,349.27,Single-ply,SBD,M
Boys,74.84,4,Jagger McCarty,Lake Dallas,74.16,127.01,70.31,145.15,342.46,Single-ply,SBD,M
Boys,74.84,5,Garren Schantz,Lake Dallas,74.39,120.2,77.11,142.88,340.19,Single-ply,SBD,M
Boys,74.84,6,Sam Shoukri,Carrollton Ranchview,69.94,113.4,79.38,127.01,319.78,Single-ply,SBD,M
Boys,74.84,7,Isaac Pierce,Carrollton Creekview,73.57,97.52,86.18,136.08,319.78,Single-ply,SBD,M
Boys,74.84,8,Bryson Porter,Lake Dallas,73.03,92.99,63.5,102.06,258.55,Single-ply,SBD,M
Boys,74.84,9,Lantric Carter,Carrollton Creekview,68.04,20.41,68.04,136.08,224.53,Single-ply,SBD,M
Boys,82.1,1,Davian Carter,Carrollton Ranchview,75.66,199.58,120.2,195.04,514.83,Single-ply,SBD,M
Boys,82.1,2,Kalon Mitchell,Carrollton Ranchview,75.57,174.63,108.86,188.24,471.74,Single-ply,SBD,M
Boys,82.1,3,Uriel Cadena,Carrollton Turner,81.83,154.22,102.06,172.37,428.64,Single-ply,SBD,M
Boys,82.1,4,Robert Anderson,Lake Dallas,79.47,138.35,102.06,176.9,417.3,Single-ply,SBD,M
Boys,82.1,5,Guliermo Salanda,Carrollton Turner,76.2,140.61,95.25,154.22,390.09,Single-ply,SBD,M
Boys,82.1,6,Matthew Garcia,Carrollton Ranchview,77.11,92.99,68.04,104.33,265.35,Single-ply,SBD,M
Boys,82.1,7,Jose Solis,Carrollton Creekview,76.38,72.57,54.43,106.59,233.6,Single-ply,SBD,M
Boys,82.1,8,Diondre Moton,Lake Dallas,82.01,20.41,70.31,131.54,222.26,Single-ply,SBD,M
Boys,99.79,1,Mauricio Rojas,Carrollton Turner,89.9,142.88,97.52,158.76,399.16,Single-ply,SBD,M
Boys,89.81,2,Damion Hyde,Lake Dallas,88.9,129.27,106.59,158.76,394.63,Single-ply,SBD,M
Boys,89.81,3,Andres Reteria,Carrollton Creekview,85.55,122.47,70.31,142.88,335.66,Single-ply,SBD,M
Boys,89.81,4,Orlando Garcia,Carrollton Creekview,88.72,106.59,74.84,136.08,317.51,Single-ply,SBD,M
Boys,89.81,5,Jayson Ginn,Carrollton Ranchview,86.36,108.86,79.38,127.01,315.25,Single-ply,SBD,M
Boys,89.81,6,Brayan Orellana,Carrollton Creekview,85,83.91,63.5,124.74,272.16,Single-ply,SBD,M
Boys,89.81,7,Issa Diop,Carrollton Creekview,86.82,52.16,38.56,65.77,156.49,Single-ply,SBD,M
Boys,99.79,1,Jacob Biggerstaff,Lake Dallas,93.71,151.95,120.2,188.24,460.4,Single-ply,SBD,M
Boys,109.77,2,Taylor Wilson,Carrollton Turner,99.97,142.88,104.33,181.44,428.64,Single-ply,SBD,M
Boys,99.79,3,Renan Olivera,Carrollton Ranchview,94.71,138.35,86.18,179.17,403.7,Single-ply,SBD,M
Boys,99.79,4,Tristen Bennett,Carrollton Ranchview,99.16,20.41,113.4,183.7,317.51,Single-ply,SBD,M
Boys,99.79,5,Alexis Arbaiza,Carrollton Turner,93.26,102.06,65.77,122.47,290.3,Single-ply,SBD,M
Boys,99.79,6,Alejandro Garcia,Carrollton Turner,95.25,90.72,61.23,131.54,283.5,Single-ply,SBD,M
Boys,109.77,1,David Wilson,Carrollton Turner,101.7,158.76,124.74,204.12,487.61,Single-ply,SBD,M
Boys,109.77,2,Dominick Weston,Lake Dallas,106.14,127.01,86.18,145.15,358.34,Single-ply,SBD,M
Boys,109.77,3,Blake Burkhead,Carrollton Creekview,102.24,124.74,88.45,138.35,351.53,Single-ply,SBD,M
Boys,124.74,1,Jonathan Robinson,Carrollton Ranchview,122.65,140.61,95.25,151.95,387.82,Single-ply,SBD,M
Boys,124.74,2,Zach Baetz,Lake Dallas,124.01,151.95,86.18,149.69,387.82,Single-ply,SBD,M
Boys,124.74,3,Cameron Officer,Carrollton Creekview,110.86,124.74,88.45,142.88,356.07,Single-ply,SBD,M
Boys,124.74,4,Evan Lea,Lake Dallas,113.04,129.27,56.7,145.15,331.12,Single-ply,SBD,M
Boys,124.74+,1,CJ Mendoza,Carrollton Ranchview,129,192.78,120.2,226.8,539.77,Single-ply,SBD,M
Boys,124.74+,2,Manny Flores,Carrollton Turner,133.81,158.76,127.01,204.12,489.88,Single-ply,SBD,M
Boys,124.74+,3,Austin Livingston,Lake Dallas,149.69,147.42,108.86,181.44,437.72,Single-ply,SBD,M
