Division,WeightClassKg,Place,Name,Team,BodyweightKg,Best3SquatKg,Best3BenchKg,Best3DeadliftKg,TotalKg,Equipment,Event,Sex
Boys,51.71,1,Pablo Gutierrez,Weslaco East,51.53,120.2,95.25,174.63,390.09,Single-ply,SBD,M
Boys,51.71,2,Brandon Sauceda,PSJA Memorial,49.53,127.01,65.77,124.74,317.51,Single-ply,SBD,M
Boys,51.71,3,David Garcia,Pharr Valley View,49.35,113.4,65.77,127.01,306.17,Single-ply,SBD,M
Boys,51.71,4,Leo Tanguma,Rio Grande City Grulla,51.07,97.52,58.97,104.33,260.82,Single-ply,SBD,M
Boys,51.71,DQ,Orlando Garcia,Rio Grande City,51.71,113.4,,,,Single-ply,SBD,M
Boys,55.79,1,Omar Puente,Los Fresnos,55.07,167.83,117.93,195.04,480.81,Single-ply,SBD,M
Boys,59.87,2,JR Torres,San Benito,56.02,140.61,90.72,165.56,396.89,Single-ply,SBD,M
Boys,59.87,1,Steve Solis,PSJA Memorial,58.33,192.78,108.86,190.51,492.15,Single-ply,SBD,M
Boys,59.87,2,Mike Jaramillo,PSJA Memorial,56.7,163.29,97.52,165.56,426.38,Single-ply,SBD,M
Boys,59.87,3,Lorenzo Huerta,PSJA Southwest,58.06,161.03,83.91,170.1,415.04,Single-ply,SBD,M
Boys,59.87,4,Jerry Pena,Rio Grande City,59.87,163.29,74.84,167.83,405.97,Single-ply,SBD,M
Boys,59.87,5,Jesus Garcia Huerta,Mission,58.42,138.35,95.25,149.69,383.29,Single-ply,SBD,M
Boys,59.87,6,Gus Maldonado,Rio Grande City,59.87,142.88,74.84,147.42,365.14,Single-ply,SBD,M
Boys,59.87,7,Joshua Garcia,Weslaco,58.51,131.54,70.31,142.88,344.73,Single-ply,SBD,M
Boys,59.87,8,Edwardo Jilpas,Weslaco,59.15,124.74,70.31,136.08,331.12,Single-ply,SBD,M
Boys,59.87,9,Florentino Mireles,Rio Grande City,59.87,113.4,74.84,142.88,331.12,Single-ply,SBD,M
Boys,59.87,10,Christian Gonzalez,Weslaco,59.42,127.01,72.57,124.74,324.32,Single-ply,SBD,M
Boys,59.87,11,Carlos Gile,PSJA,59.51,120.2,77.11,127.01,324.32,Single-ply,SBD,M
Boys,59.87,12,John Flores,Rio Grande City,59.87,102.06,68.04,117.93,288.03,Single-ply,SBD,M
Boys,59.87,DQ,Jorge Cantu,PSJA Southwest,56.43,142.88,,,,Single-ply,SBD,M
Boys,67.13,1,Chris Galarza,Los Fresnos,65.05,231.33,124.74,199.58,555.65,Single-ply,SBD,M
Boys,67.13,2,Ernie Sandell,San Benito,66.86,183.7,129.27,208.65,521.63,Single-ply,SBD,M
Boys,67.13,3,Joe Torres,Los Fresnos,66.13,188.24,124.74,195.04,508.02,Single-ply,SBD,M
Boys,67.13,4,Edward Palomin,Weslaco,65.95,181.44,117.93,199.58,498.95,Single-ply,SBD,M
Boys,67.13,5,Carlos Castillo,Los Fresnos,66.95,195.04,102.06,192.78,489.88,Single-ply,SBD,M
Boys,67.13,6,Julian Morales,Weslaco,66.68,192.78,92.99,197.31,483.08,Single-ply,SBD,M
Boys,67.13,7,Isacc Diaz,PSJA,60.78,181.44,108.86,163.29,453.59,Single-ply,SBD,M
Boys,67.13,8,Aaron Robles,San Benito,61.69,156.49,95.25,181.44,433.18,Single-ply,SBD,M
Boys,67.13,9,David Martinez #12,Weslaco East,62.6,133.81,102.06,161.03,396.89,Single-ply,SBD,M
Boys,74.84,10,Everardo Gonzalez,Rio Grande City Grulla,67.36,120.2,79.38,147.42,347,Single-ply,SBD,M
Boys,67.13,DQ,Saul Cuellar,Weslaco East,65.95,167.83,,,,Single-ply,SBD,M
Boys,67.13,DQ,Victor Acosta,Pharr Valley View,63.23,127.01,,,,Single-ply,SBD,M
Boys,74.84,1,Abram Guerra,Rio Grande City,74.39,260.82,142.88,240.4,644.1,Single-ply,SBD,M
Boys,74.84,2,Justin Guerra,Rio Grande City,74.39,238.14,142.88,204.12,585.13,Single-ply,SBD,M
Boys,82.1,3,Esteban Flores,Pharr Valley View,75.07,183.7,120.2,242.67,546.58,Single-ply,SBD,M
Boys,74.84,4,Robert Cantu,Mission Sharyland,69.31,208.65,120.2,204.12,532.97,Single-ply,SBD,M
Boys,74.84,5,Noel Zuniga,PSJA,72.67,206.38,113.4,206.38,526.17,Single-ply,SBD,M
Boys,74.84,6,Jessie Villareal,PSJA Southwest,71.76,188.24,111.13,197.31,496.68,Single-ply,SBD,M
Boys,74.84,7,Arturo Rosales,San Benito,68.95,174.63,122.47,188.24,485.34,Single-ply,SBD,M
Boys,74.84,8,Juan Servantes,PSJA Memorial,74.12,172.37,97.52,185.97,455.86,Single-ply,SBD,M
Boys,74.84,9,Guillermo Silva,Rio Grande City,74.84,185.97,97.52,167.83,451.32,Single-ply,SBD,M
Boys,74.84,10,Martin Saldana,PSJA Southwest,69.4,188.24,92.99,158.76,439.98,Single-ply,SBD,M
Boys,74.84,11,Adonis Juarez,Mission,68.22,161.03,106.59,163.29,430.91,Single-ply,SBD,M
Boys,74.84,12,Brandon Hernandez,Weslaco East,71.58,149.69,95.25,174.63,419.57,Single-ply,SBD,M
Boys,74.84,13,Erick Flores,Mission,68.22,138.35,95.25,172.37,405.97,Single-ply,SBD,M
Boys,74.84,14,Adan Cantu,Rio Grande City Grulla,73.39,165.56,95.25,138.35,399.16,Single-ply,SBD,M
Boys,74.84,15,Robert Martinez,PSJA Southwest,69.76,151.95,83.91,156.49,392.36,Single-ply,SBD,M
Boys,74.84,16,Mark Perez,Rio Grande City Grulla,69.49,131.54,88.45,151.95,371.95,Single-ply,SBD,M
Boys,74.84,17,Robert Camarillo III,Rio Grande City Grulla,69.67,120.2,86.18,161.03,367.41,Single-ply,SBD,M
Boys,74.84,18,Luiz Villarreal,PSJA,68.49,99.79,72.57,113.4,285.76,Single-ply,SBD,M
Boys,82.1,1,DJ Martinez,PSJA Memorial,75.48,219.99,136.08,222.26,578.33,Single-ply,SBD,M
Boys,82.1,2,Miguel Galvan,Pharr Valley View,79.47,210.92,145.15,219.99,576.06,Single-ply,SBD,M
Boys,82.1,3,JD Elizondo,PSJA,80.74,199.58,151.95,192.78,544.31,Single-ply,SBD,M
Boys,82.1,4,Eduardo Ramirez,Los Fresnos,79.65,219.99,129.27,183.7,532.97,Single-ply,SBD,M
Boys,82.1,5,Marco Villareal,Mission Sharyland,80.65,192.78,133.81,199.58,526.17,Single-ply,SBD,M
Boys,82.1,6,Erasmo Canales,Rio Grande City,80.74,195.04,136.08,183.7,514.83,Single-ply,SBD,M
Boys,82.1,7,Andrew Benavidez,PSJA North,80.29,192.78,108.86,197.31,498.95,Single-ply,SBD,M
Boys,82.1,8,Bryan Sanchez,Weslaco East,77.79,176.9,115.67,185.97,478.54,Single-ply,SBD,M
Boys,89.81,9,Sabas Garcia,Mission,82.28,170.1,120.2,176.9,467.2,Single-ply,SBD,M
Boys,82.1,10,Alex Melendez,Pharr Valley View,82.01,167.83,99.79,192.78,460.4,Single-ply,SBD,M
Boys,82.1,11,Jorge Garcia,PSJA,76.38,161.03,102.06,170.1,433.18,Single-ply,SBD,M
Boys,82.1,12,Jesse Coronado,Weslaco,81.65,158.76,95.25,156.49,410.5,Single-ply,SBD,M
Boys,82.1,13,Isai Perez,Rio Grande City Grulla,82.1,158.76,95.25,154.22,408.23,Single-ply,SBD,M
Boys,82.1,14,Carlos Portales,PSJA Southwest,77.11,158.76,83.91,156.49,399.16,Single-ply,SBD,M
Boys,82.1,15,Elias Sierra,Weslaco East,78.47,145.15,86.18,161.03,392.36,Single-ply,SBD,M
Boys,82.1,16,Edgar Fernandez,Mission Sharyland,80.92,142.88,102.06,136.08,381.02,Single-ply,SBD,M
Boys,82.1,DQ,Manuel Garza,Rio Grande City,82.1,,,,,Single-ply,SBD,M
Boys,89.81,1,Ernesto Tafolla,Weslaco,87.36,240.4,136.08,235.87,612.35,Single-ply,SBD,M
Boys,89.81,2,Miguel Pena,Pharr Valley View,89.09,226.8,151.95,226.8,605.55,Single-ply,SBD,M
Boys,89.81,3,Danny Mora,Mission Sharyland,89.27,226.8,124.74,229.06,580.6,Single-ply,SBD,M
Boys,89.81,4,Andrew Cura,Mission Sharyland,86.64,206.38,115.67,215.46,537.51,Single-ply,SBD,M
Boys,89.81,5,Randy de la Garza,Mission,84.64,217.72,131.54,185.97,535.24,Single-ply,SBD,M
Boys,89.81,6,Alberto Roque,Mission,88.9,197.31,117.93,192.78,508.02,Single-ply,SBD,M
Boys,89.81,7,Jorge Berrones,PSJA North,87.72,210.92,117.93,163.29,492.15,Single-ply,SBD,M
Boys,89.81,8,Ryan Anzaldua,PSJA North,84.73,195.04,115.67,165.56,476.27,Single-ply,SBD,M
Boys,89.81,9,Aaron Sauceda,PSJA Memorial,85.09,183.7,113.4,176.9,474,Single-ply,SBD,M
Boys,89.81,10,Margarito Vega,Weslaco,83.01,165.56,79.38,158.76,403.7,Single-ply,SBD,M
Boys,89.81,11,Diego Salinas,PSJA North,85.09,181.44,97.52,,278.96,Single-ply,SB,M
Boys,89.81,DQ,Jerry Gonzalez,Pharr Valley View,87.54,113.4,,,,Single-ply,SB,M
Boys,89.81,DQ,Luis Ontivernos,Rio Grande City Grulla,87.18,102.06,,,,Single-ply,SB,M
Boys,109.77,1,Victor Rodriguez,Pharr Valley View,99.88,238.14,113.4,242.67,594.21,Single-ply,SBD,M
Boys,99.79,2,Julio Rivas,San Benito,96.98,208.65,138.35,233.6,580.6,Single-ply,SBD,M
Boys,99.79,3,John Arevaldo,Weslaco East,93.26,226.8,108.86,226.8,562.45,Single-ply,SBD,M
Boys,99.79,4,Jose Pitones,Pharr Valley View,92.53,204.12,129.27,226.8,560.19,Single-ply,SBD,M
Boys,99.79,5,Adrian Zuñiga,San Benito,92.99,206.38,124.74,224.53,555.65,Single-ply,SBD,M
Boys,99.79,6,Arnulfo Marin,Pharr Valley View,93.8,217.72,104.33,208.65,530.7,Single-ply,SBD,M
Boys,99.79,7,Mario Gonzalez,PSJA,94.71,204.12,124.74,195.04,523.9,Single-ply,SBD,M
Boys,99.79,8,Ray Flores,Weslaco East,92.9,185.97,122.47,165.56,474,Single-ply,SBD,M
Boys,99.79,9,Faustino Saldana,PSJA Southwest,91.9,183.7,106.59,181.44,471.74,Single-ply,SBD,M
Boys,99.79,10,Noe Alonzo,PSJA Memorial,99.43,185.97,117.93,167.83,471.74,Single-ply,SBD,M
Boys,99.79,11,Joe Gonzalez,San Benito,93.53,151.95,111.13,167.83,430.91,Single-ply,SBD,M
Boys,99.79,12,Eddie Favata,PSJA North,93.71,140.61,104.33,140.61,385.55,Single-ply,SBD,M
Boys,99.79,13,Andrew Hull,PSJA,95.25,129.27,108.86,129.27,367.41,Single-ply,SBD,M
Boys,99.79,DQ,Chive Santana,PSJA,95.71,,,,,Single-ply,SBD,M
Boys,99.79,DQ,Jose Juarez,Weslaco,99.61,,,,,Single-ply,SBD,M
Boys,109.77,1,Christian Garcia,Weslaco East,105.32,249.48,151.95,240.4,641.83,Single-ply,SBD,M
Boys,109.77,2,Sebastian Garcia,PSJA Memorial,106.5,226.8,142.88,204.12,573.79,Single-ply,SBD,M
Boys,109.77,3,David M Rodriguez,PSJA,101.88,197.31,113.4,188.24,498.95,Single-ply,SBD,M
Boys,109.77,4,Kevin Trevino,PSJA North,108.05,183.7,115.67,179.17,478.54,Single-ply,SBD,M
Boys,109.77,5,Rudy Chapa,PSJA North,104.78,197.31,124.74,149.69,471.74,Single-ply,SBD,M
Boys,109.77,6,Jon Soto,PSJA Southwest,104.24,158.76,129.27,170.1,458.13,Single-ply,SBD,M
Boys,109.77,7,Jesus Roiz,Rio Grande City Grulla,100.33,170.1,115.67,165.56,451.32,Single-ply,SBD,M
Boys,109.77,8,Nick Lemus,Mission Sharyland,102.33,165.56,104.33,172.37,442.25,Single-ply,SBD,M
Boys,109.77,9,Eli Escaname,Mission Sharyland,102.51,154.22,117.93,163.29,435.45,Single-ply,SBD,M
Boys,109.77,10,Luis Guterrez,PSJA Southwest,101.15,147.42,92.99,174.63,415.04,Single-ply,SBD,M
Boys,109.77,11,Jesse Anaya,Weslaco,101.51,161.03,90.72,151.95,403.7,Single-ply,SBD,M
Boys,124.74,1,Carlos Cuellar,Weslaco East,118.39,294.84,201.85,260.82,757.5,Single-ply,SBD,M
Boys,124.74,2,Pedro Lozano,San Benito,123.1,240.4,176.9,235.87,653.17,Single-ply,SBD,M
Boys,124.74,3,Roy Valdez,Los Fresnos,115.39,235.87,149.69,249.48,635.03,Single-ply,SBD,M
Boys,124.74,4,Andrew Cruz,PSJA North,116.57,249.48,163.29,222.26,635.03,Single-ply,SBD,M
Boys,124.74,5,Christian Guajardo,Pharr Valley View,124.1,240.4,158.76,233.6,632.76,Single-ply,SBD,M
Boys,124.74,6,Josh Cavazos,Mission Sharyland,116.12,238.14,138.35,229.06,605.55,Single-ply,SBD,M
Boys,124.74,7,Patrick Longoria,Weslaco,117.48,238.14,122.47,195.04,555.65,Single-ply,SBD,M
Boys,124.74,8,Juan Garcia,Los Fresnos,113.04,217.72,117.93,197.31,532.97,Single-ply,SBD,M
Boys,124.74,9,Richard Cervantes,Mission Sharyland,123.92,183.7,111.13,238.14,532.97,Single-ply,SBD,M
Boys,124.74,10,Andrew Pratt,Rio Grande City,124.74,206.38,104.33,208.65,519.36,Single-ply,SBD,M
Boys,124.74,11,Jessie Martinez,Weslaco East,110.68,170.1,115.67,206.38,492.15,Single-ply,SBD,M
Boys,124.74,12,Javi Lara,PSJA North,110.22,192.78,99.79,149.69,442.25,Single-ply,SBD,M
Boys,124.74,13,Raul de la Cruz,Mission,114.62,197.31,99.79,145.15,442.25,Single-ply,SBD,M
Boys,124.74,14,Keith Mora,Mission Sharyland,117.75,181.44,102.06,145.15,428.64,Single-ply,SBD,M
Boys,124.74,15,Gabrian Vela,PSJA North,112.04,140.61,90.72,142.88,374.21,Single-ply,SBD,M
Boys,124.74,16,Ramon Garza,Rio Grande City Grulla,111.67,147.42,97.52,124.74,369.68,Single-ply,SBD,M
Boys,124.74,DQ,Juan Zuniga,Mission,119.2,,,,,Single-ply,SBD,M
Boys,124.74+,1,Adrian Cantu,Rio Grande City Grulla,151.86,263.08,154.22,226.8,644.1,Single-ply,SBD,M
Boys,124.74+,2,Adrian Alcantar,PSJA Memorial,130.63,244.94,154.22,204.12,603.28,Single-ply,SBD,M
Boys,124.74+,3,Abel Cruces,Los Fresnos,129,199.58,172.37,208.65,580.6,Single-ply,SBD,M
Boys,124.74+,4,Randy Fernandez,PSJA North,128.64,181.44,122.47,154.22,458.13,Single-ply,SBD,M
Boys,124.74+,DQ,Miguel Martinez,PSJA,150.77,,,,,Single-ply,SBD,M
Boys,124.74+,DQ,Luis Garcia,Mission Sharyland,131.18,215.46,,,,Single-ply,SBD,M
