Division,WeightClassKg,Place,Name,Team,BodyweightKg,Best3SquatKg,Best3BenchKg,Best3DeadliftKg,TotalKg,Equipment,Event,Sex
Boys,51.71,1,Miguel Contreras,Robinson,51.07,115.67,61.23,102.06,278.96,Single-ply,SBD,M
Boys,51.71,2,Jhovanny Gutierrez,Hearne,50.53,97.52,47.63,120.2,265.35,Single-ply,SBD,M
Boys,51.71,3,Cody Betser,Fairfield,46.27,90.72,45.36,102.06,238.14,Single-ply,SBD,M
Boys,51.71,4,Raymond Sifuentes,Hearne,47.72,63.5,56.7,102.06,222.26,Single-ply,SBD,M
Boys,51.71,5,Justin Klaus,West,48.17,81.65,43.09,90.72,215.46,Single-ply,SBD,M
Boys,51.71,6,Michael Smagghe,Fairfield,47.63,68.04,52.16,92.99,213.19,Single-ply,SBD,M
Boys,51.71,7,Sean Murphy,Bosqueville,51.71,63.5,47.63,97.52,208.65,Single-ply,SBD,M
Boys,51.71,8,Juan Rodriguez,Hearne,45.99,70.31,29.48,90.72,190.51,Single-ply,SBD,M
Boys,51.71,9,Isaac Villatana,McGregor,36.38,29.48,24.95,20.41,74.84,Single-ply,SBD,M
Boys,59.87,1,Colton Russell,Bosqueville,55.97,179.17,77.11,158.76,415.04,Single-ply,SBD,M
Boys,59.87,2,Dane Rodriguez,Chilton,56.02,136.08,70.31,133.81,340.19,Single-ply,SBD,M
Boys,55.79,3,Cannon Tate,Riesel,54.34,74.84,38.56,90.72,204.12,Single-ply,SBD,M
Boys,59.87,DQ,Mike Deak,Waco La Vega,55.97,,61.23,140.61,,Single-ply,SBD,M
Boys,55.79,DQ,Jesus Benitez,McGregor,55.61,102.06,,113.4,,Single-ply,SBD,M
Boys,67.13,1,Luis Juarez,Bosqueville,60.1,163.29,90.72,170.1,424.11,Single-ply,SBD,M
Boys,67.13,2,Freddy Hernandez,Hearne,60.06,117.93,63.5,154.22,335.66,Single-ply,SBD,M
Boys,59.87,3,Keith Langford,Riesel,57.88,129.27,61.23,140.61,331.12,Single-ply,SBD,M
Boys,59.87,4,DeVonte Graves,Chilton,59.78,113.4,63.5,145.15,322.05,Single-ply,SBD,M
Boys,59.87,5,Dalton Long,Dawson,56.52,113.4,61.23,138.35,312.98,Single-ply,SBD,M
Boys,67.13,6,Devin Eggins,Fairfield,59.96,113.4,68.04,124.74,306.17,Single-ply,SBD,M
Boys,67.13,7,Esdras Najera,Hearne,59.96,102.06,65.77,131.54,299.37,Single-ply,SBD,M
Boys,59.87,8,Phillip Nichols,Chilton,58.15,120.2,72.57,92.99,285.76,Single-ply,SBD,M
Boys,59.87,9,Josh Price,Moody,56.7,99.79,49.9,102.06,251.74,Single-ply,SBD,M
Boys,59.87,DQ,Cj Doan,Bosqueville,59.06,108.86,,129.27,,Single-ply,SBD,M
Boys,67.13,1,Michael Kohl,Rosebud-Lott,62.96,176.9,117.93,195.04,489.88,Single-ply,SBD,M
Boys,67.13,2,Zac Beyer,Bosqueville,67.13,181.44,102.06,181.44,464.93,Single-ply,SBD,M
Boys,67.13,3,Lane Fikes,Robinson,66.95,154.22,97.52,181.44,433.18,Single-ply,SBD,M
Boys,67.13,4,Matt Barnard,Lorena,66.77,167.83,95.25,154.22,417.3,Single-ply,SBD,M
Boys,67.13,5,Denovious Scaggs,Bremond,62.32,156.49,88.45,154.22,399.16,Single-ply,SBD,M
Boys,67.13,6,Jacob Mitchell,Robinson,66.04,154.22,86.18,149.69,390.09,Single-ply,SBD,M
Boys,67.13,7,Joey Leavelle,Robinson,64.41,142.88,74.84,161.03,378.75,Single-ply,SBD,M
Boys,67.13,8,Gabe Cobos,Riesel,66.95,117.93,77.11,172.37,367.41,Single-ply,SBD,M
Boys,67.13,9,Zach Rankin,West,65.77,131.54,90.72,142.88,365.14,Single-ply,SBD,M
Boys,67.13,10,Billy Manolakis,West,61.96,136.08,86.18,140.61,362.87,Single-ply,SBD,M
Boys,67.13,11,Adrian Rodriguez,Lorena,62.05,145.15,74.84,142.88,362.87,Single-ply,SBD,M
Boys,67.13,12,Cody Windham,Bremond,66.5,145.15,65.77,151.95,362.87,Single-ply,SBD,M
Boys,67.13,13,Kory Kyel,McGregor,65.41,136.08,81.65,140.61,358.34,Single-ply,SBD,M
Boys,67.13,14,Koty Kuznierek,Bremond,65.68,131.54,68.04,136.08,335.66,Single-ply,SBD,M
Boys,67.13,15,William Tolliver,Hearne,61.96,106.59,79.38,142.88,328.85,Single-ply,SBD,M
Boys,67.13,16,Jackson Krall,Lorena,63.68,136.08,77.11,115.67,328.85,Single-ply,SBD,M
Boys,67.13,17,Reed Kilpatrick,Lorena,63.68,129.27,77.11,117.93,324.32,Single-ply,SBD,M
Boys,67.13,18,Lane Love,Moody,66.22,102.06,61.23,117.93,281.23,Single-ply,SBD,M
Boys,67.13,19,Shane Sykora,Wortham,66.59,83.91,61.23,108.86,254.01,Single-ply,SBD,M
Boys,67.13,20,Keegan Robinson,Lorena,62.78,92.99,52.16,92.99,238.14,Single-ply,SBD,M
Boys,74.84,1,Alex Leos,Robinson,71.67,238.14,133.81,224.53,596.47,Single-ply,SBD,M
Boys,74.84,2,Brett Boles,McGregor,72.3,181.44,106.59,176.9,464.93,Single-ply,SBD,M
Boys,74.84,3,Stephen Mitchell,Robinson,68.67,172.37,97.52,185.97,455.86,Single-ply,SBD,M
Boys,74.84,4,Ramiro Fraire,West,73.12,163.29,97.52,176.9,437.72,Single-ply,SBD,M
Boys,74.84,5,Jimmy Joiner,Lorena,74.12,172.37,95.25,158.76,426.38,Single-ply,SBD,M
Boys,74.84,6,Garrett Salas,McGregor,70.85,158.76,90.72,167.83,417.3,Single-ply,SBD,M
Boys,74.84,7,Kyle Castilleja,Hearne,68.31,133.81,86.18,192.78,412.77,Single-ply,SBD,M
Boys,74.84,8,Rj Rangel,Robinson,74.84,158.76,95.25,156.49,410.5,Single-ply,SBD,M
Boys,74.84,9,Xavier Mitchell,Waco La Vega,69.85,149.69,74.84,158.76,383.29,Single-ply,SBD,M
Boys,74.84,10,Gage Meadows,Lorena,73.94,127.01,104.33,136.08,367.41,Single-ply,SBD,M
Boys,74.84,11,Ty Mooney,McGregor,68.67,158.76,65.77,136.08,360.61,Single-ply,SBD,M
Boys,74.84,12,David Busby,Wortham,69.13,136.08,74.84,142.88,353.8,Single-ply,SBD,M
Boys,82.1,13,Haven Proulx,Wortham,75.02,124.74,65.77,158.76,349.27,Single-ply,SBD,M
Boys,74.84,14,Ryan Baty,Riesel,74.84,136.08,63.5,136.08,335.66,Single-ply,SBD,M
Boys,74.84,15,Cody Beck,Wortham,72.57,111.13,65.77,138.35,315.25,Single-ply,SBD,M
Boys,74.84,16,Brandon Cehand,Dawson,72.57,111.13,65.77,136.08,312.98,Single-ply,SBD,M
Boys,74.84,17,Emanuel Rueda,Chilton,70.49,140.61,61.23,108.86,310.71,Single-ply,SBD,M
Boys,74.84,18,Ryan Hedges,Bosqueville,67.86,97.52,61.23,117.93,276.69,Single-ply,SBD,M
Boys,74.84,NS,Frank Butler,Bosqueville,,120.2,,127.01,,Single-ply,SBD,M
Boys,82.1,1,Damian Kozak,Bremond,77.11,226.8,147.42,219.99,594.21,Single-ply,SBD,M
Boys,89.81,2,Sean McGrew,Hearne,82.33,190.51,108.86,208.65,508.02,Single-ply,SBD,M
Boys,82.1,3,Ben Parrish,Groesbeck,81.1,185.97,106.59,185.97,478.54,Single-ply,SBD,M
Boys,82.1,4,Victor Mendoza,Hearne,82.01,167.83,111.13,190.51,469.47,Single-ply,SBD,M
Boys,82.1,5,Taylor Fox,McGregor,81.56,181.44,111.13,174.63,467.2,Single-ply,SBD,M
Boys,82.1,6,Cole Anderson,West,80.38,172.37,108.86,174.63,455.86,Single-ply,SBD,M
Boys,82.1,7,Ben Barlow,Fairfield,81.83,172.37,106.59,161.03,439.98,Single-ply,SBD,M
Boys,82.1,8,Ricky Thompson,Robinson,78.47,156.49,90.72,181.44,428.64,Single-ply,SBD,M
Boys,82.1,9,Colton Hedrick,Groesbeck,81.83,158.76,83.91,172.37,415.04,Single-ply,SBD,M
Boys,82.1,10,Heston Skaggs,Moody,80.29,147.42,72.57,154.22,374.21,Single-ply,SBD,M
Boys,82.1,11,Cody Hubbard,Moody,80.47,113.4,56.7,102.06,272.16,Single-ply,SBD,M
Boys,82.1,DQ,Angus Worcester,Wortham,81.74,124.74,,,,Single-ply,SBD,M
Boys,89.81,1,Martin Balderas,Groesbeck,84.01,231.33,142.88,240.4,614.62,Single-ply,SBD,M
Boys,89.81,2,Gerald Horne II,Waco La Vega,87,206.38,142.88,201.85,551.11,Single-ply,SBD,M
Boys,89.81,3,Jarred Goedeke,Robinson,84.28,181.44,102.06,197.31,480.81,Single-ply,SBD,M
Boys,89.81,4,Dalton Barker,Fairfield,88.9,181.44,97.52,181.44,460.4,Single-ply,SBD,M
Boys,89.81,5,Steven Gausemeier,Rosebud-Lott,83.28,158.76,113.4,181.44,453.59,Single-ply,SBD,M
Boys,89.81,6,Preston Parsons,Moody,89.45,170.1,104.33,172.37,446.79,Single-ply,SBD,M
Boys,89.81,7,Brent Massey,Dawson,83.64,142.88,90.72,185.97,419.57,Single-ply,SBD,M
Boys,99.79,8,Seth Pomakal,Chilton,89.99,147.42,95.25,158.76,401.43,Single-ply,SBD,M
Boys,89.81,9,Dakoia Sullivan,Dawson,86.91,136.08,77.11,183.7,396.89,Single-ply,SBD,M
Boys,89.81,10,Undra Smith,West,88.72,142.88,92.99,158.76,394.63,Single-ply,SBD,M
Boys,89.81,11,Bret Mathis,Bosqueville,83.91,145.15,86.18,158.76,390.09,Single-ply,SBD,M
Boys,89.81,12,Richard Mills,Riesel,88.9,149.69,86.18,145.15,381.02,Single-ply,SBD,M
Boys,89.81,13,Patrick Hoven,McGregor,84.64,124.74,86.18,145.15,356.07,Single-ply,SBD,M
Boys,89.81,14,William Robert,Riesel,89.18,127.01,63.5,127.01,317.51,Single-ply,SBD,M
Boys,89.81,15,Patrick Cresson,Lorena,88.99,113.4,63.5,95.25,272.16,Single-ply,SBD,M
Boys,89.81,DQ,Taylor Robinson,McGregor,86.09,108.86,,104.33,,Single-ply,SBD,M
Boys,89.81,DQ,Nick Johnson,Hearne,88,165.56,,208.65,,Single-ply,SBD,M
Boys,89.81,DQ,Matt McNew,Robinson,85,147.42,,158.76,,Single-ply,SBD,M
Boys,99.79,1,John Maddigan,Rosebud-Lott,96.62,254.01,154.22,254.01,662.24,Single-ply,SBD,M
Boys,99.79,2,Shaq Walker,Waco La Vega,98.61,238.14,115.67,240.4,594.21,Single-ply,SBD,M
Boys,99.79,3,Cody Sell,Fairfield,98.97,226.8,142.88,195.04,564.72,Single-ply,SBD,M
Boys,109.77,4,Guadalupe Munoz,Waco La Vega,100.02,206.38,138.35,188.24,532.97,Single-ply,SBD,M
Boys,99.79,5,John Almanza,Bosqueville,95.25,204.12,115.67,185.97,505.76,Single-ply,SBD,M
Boys,99.79,6,Anthony Manolakis,West,98.79,199.58,111.13,190.51,501.22,Single-ply,SBD,M
Boys,99.79,7,Matt Gerik,West,93.62,188.24,102.06,181.44,471.74,Single-ply,SBD,M
Boys,99.79,8,Will Doyle,Fairfield,94.62,174.63,97.52,185.97,458.13,Single-ply,SBD,M
Boys,99.79,9,Tanner Nors,West,94.26,163.29,97.52,174.63,435.45,Single-ply,SBD,M
Boys,99.79,10,Jeremy Grant,Dawson,95.98,170.1,97.52,167.83,435.45,Single-ply,SBD,M
Boys,99.79,11,Vinny Tovar,Waco La Vega,97.61,170.1,113.4,149.69,433.18,Single-ply,SBD,M
Boys,99.79,12,Jacob Trevino,Moody,90.45,172.37,88.45,156.49,417.3,Single-ply,SBD,M
Boys,99.79,13,Kameron Smith,Chilton,93.98,165.56,102.06,136.08,403.7,Single-ply,SBD,M
Boys,109.77,14,Travis Crowson,Groesbeck,99.97,142.88,86.18,149.69,378.75,Single-ply,SBD,M
Boys,99.79,15,Daniel Perez,Wortham,90.9,129.27,77.11,138.35,344.73,Single-ply,SBD,M
Boys,99.79,16,Dylan Morgan,Riesel,95.89,102.06,56.7,104.33,263.08,Single-ply,SBD,M
Boys,99.79,17,Jose Chavez,Riesel,91.9,81.65,54.43,106.59,242.67,Single-ply,SBD,M
Boys,99.79,DQ,Josh Gallegos,Fairfield,98.07,90.72,,142.88,,Single-ply,SBD,M
Boys,109.77,1,Dillen Kilpatrick,Fairfield,105.96,249.48,158.76,195.04,603.28,Single-ply,SBD,M
Boys,109.77,2,Josh Carroll,Waco La Vega,103.96,222.26,127.01,215.46,564.72,Single-ply,SBD,M
Boys,124.74,3,Michael Raymond,Fairfield,109.95,226.8,92.99,181.44,501.22,Single-ply,SBD,M
Boys,109.77,4,Logan Willenborg,West,109.68,158.76,92.99,167.83,419.57,Single-ply,SBD,M
Boys,109.77,5,Steven King,Groesbeck,106.78,142.88,113.4,158.76,415.04,Single-ply,SBD,M
Boys,109.77,6,Jason Harris,West,101.42,142.88,77.11,131.54,351.53,Single-ply,SBD,M
Boys,124.74,7,Logan McGilvrey,Groesbeck,109.86,88.45,56.7,113.4,258.55,Single-ply,SBD,M
Boys,124.74,1,Trent Andrews,Bosqueville,121.56,265.35,124.74,240.4,630.49,Single-ply,SBD,M
Boys,124.74,2,Dwight Holder,Waco La Vega,120.66,244.94,136.08,217.72,598.74,Single-ply,SBD,M
Boys,124.74,3,Anthony Barraza,Groesbeck,116.85,231.33,124.74,222.26,578.33,Single-ply,SBD,M
Boys,124.74,4,Andy McNew,Robinson,118.3,226.8,131.54,206.38,564.72,Single-ply,SBD,M
Boys,124.74,5,Alexix Olvera,McGregor,119.84,204.12,124.74,181.44,510.29,Single-ply,SBD,M
Boys,124.74,6,Adam Chavez,Robinson,114.85,190.51,95.25,181.44,467.2,Single-ply,SBD,M
Boys,124.74,7,Cameron Lewis,Wortham,118.66,170.1,90.72,158.76,419.57,Single-ply,SBD,M
Boys,124.74,8,Austin Allsup,Lorena,115.12,158.76,97.52,138.35,394.63,Single-ply,SBD,M
Boys,124.74+,1,Shane Murphy,Robinson,163.66,238.14,181.44,226.8,646.37,Single-ply,SBD,M
Boys,124.74+,2,Marcelo Ramirez,Waco La Vega,137.44,240.4,117.93,249.48,607.81,Single-ply,SBD,M
Boys,124.74+,3,Eden Richardson,Fairfield,138.44,226.8,151.95,204.12,582.87,Single-ply,SBD,M
Boys,124.74+,4,Trevor Beard,Lorena,126.01,215.46,122.47,185.97,523.9,Single-ply,SBD,M
Boys,124.74+,5,Michael Williams,Dawson,138.07,208.65,97.52,136.08,442.25,Single-ply,SBD,M
