Division,WeightClassKg,Place,Name,Team,BodyweightKg,Best3SquatKg,Best3BenchKg,Best3DeadliftKg,TotalKg,Equipment,Event,Sex
Boys,51.71,1,Rolando Guajardo,Frisco Centennial,51.62,131.54,77.11,149.69,358.34,Single-ply,SBD,M
Boys,51.71,2,Noah Clasen,Frisco Wakeland,46.99,72.57,38.56,88.45,199.58,Single-ply,SBD,M
Boys,55.79,1,Blayze Ferguson,Frisco Heritage,55.25,122.47,95.25,138.35,356.07,Single-ply,SBD,M
Boys,55.79,2,Daniel Herron,Frisco Heritage,54.75,136.08,74.84,136.08,347,Single-ply,SBD,M
Boys,55.79,3,Conner Gressett,Frisco Wakeland,54.84,120.2,61.23,124.74,306.17,Single-ply,SBD,M
Boys,55.79,DQ,Gabriel Price,Frisco,53.3,,,,,Single-ply,SBD,M
Boys,59.87,1,Aaron Bohannon,Frisco Lone Star,58.24,142.88,68.04,138.35,349.27,Single-ply,SBD,M
Boys,59.87,2,Sam Hamidi,Frisco Lebanon Trail,59.06,142.88,70.31,133.81,347,Single-ply,SBD,M
Boys,59.87,3,Justin Wandel,Frisco Reedy,55.88,111.13,65.77,127.01,303.91,Single-ply,SBD,M
Boys,59.87,4,Joel Mendoza,Frisco Lone Star,59.51,104.33,68.04,122.47,294.84,Single-ply,SBD,M
Boys,59.87,5,Robert Walker,Frisco Reedy,59.01,106.59,52.16,117.93,276.69,Single-ply,SBD,M
Boys,59.87,6,Daniel Kinghorn,Frisco Independence,58.65,102.06,63.5,106.59,272.16,Single-ply,SBD,M
Boys,59.87,7,Memphis Ferguson,Frisco Independence,57.29,79.38,49.9,90.72,219.99,Single-ply,SBD,M
Boys,67.13,1,Jordan Hogg,Frisco Lebanon Trail,66.18,197.31,104.33,190.51,492.15,Single-ply,SBD,M
Boys,67.13,2,Jameson Donahue,Frisco Reedy,65.41,183.7,122.47,183.7,489.88,Single-ply,SBD,M
Boys,67.13,3,Princeton Parker,Frisco Lebanon Trail,63.87,181.44,86.18,185.97,453.59,Single-ply,SBD,M
Boys,67.13,4,Coby Overbeck,Frisco Wakeland,67.13,142.88,88.45,154.22,385.55,Single-ply,SBD,M
Boys,67.13,5,Trevor Adkins,Frisco Lebanon Trail,63.19,147.42,65.77,167.83,381.02,Single-ply,SBD,M
Boys,67.13,6,Tolu Sokoya,Frisco Lone Star,65.63,154.22,79.38,147.42,381.02,Single-ply,SBD,M
Boys,67.13,7,Jared Banda,Frisco Reedy,61.42,131.54,83.91,163.29,378.75,Single-ply,SBD,M
Boys,67.13,8,Greyson Hickey,Frisco Reedy,61.73,111.13,65.77,136.08,312.98,Single-ply,SBD,M
Boys,67.13,9,Gavin Fisher,Frisco Liberty,66.86,99.79,56.7,120.2,276.69,Single-ply,SBD,M
Boys,67.13,10,Tanner Glover,Frisco Lone Star,64.23,136.08,74.84,,210.92,Single-ply,SB,M
Boys,67.13,DQ,Luis Medina,Frisco Heritage,66.72,,,,,Single-ply,SB,M
Boys,74.84,1,Justin Smith,Frisco Centennial,74.21,226.8,129.27,215.46,571.53,Single-ply,SBD,M
Boys,74.84,2,Charlie Burkhart,Frisco Wakeland,73.62,190.51,124.74,199.58,514.83,Single-ply,SBD,M
Boys,74.84,3,Sam Carlson,Frisco Reedy,74.16,188.24,113.4,213.19,514.83,Single-ply,SBD,M
Boys,74.84,4,Josh Foster,Frisco Lone Star,72.44,195.04,97.52,208.65,501.22,Single-ply,SBD,M
Boys,74.84,5,Sam Oh,Frisco Lone Star,74.8,165.56,108.86,163.29,437.72,Single-ply,SBD,M
Boys,74.84,6,Ali Noorani,Frisco Wakeland,70.81,142.88,90.72,158.76,392.36,Single-ply,SBD,M
Boys,74.84,7,Bryson Flaherty,Frisco Memorial,70.53,131.54,90.72,136.08,358.34,Single-ply,SBD,M
Boys,74.84,8,Heyden Lark,Frisco Heritage,72.03,104.33,58.97,122.47,285.76,Single-ply,SBD,M
Boys,74.84,9,Hari Potluri,Frisco Liberty,72.17,81.65,54.43,99.79,235.87,Single-ply,SBD,M
Boys,74.84,10,Sean Wara,Frisco Heritage,74.8,183.7,,,183.7,Single-ply,S,M
Boys,74.84,11,Reece Riherd,Frisco Heritage,72.8,170.1,,,170.1,Single-ply,S,M
Boys,74.84,12,Owen Wise,Frisco Liberty,71.3,145.15,,,145.15,Single-ply,S,M
Boys,82.1,1,Jawan Washington,Frisco Centennial,80.01,199.58,133.81,204.12,537.51,Single-ply,SBD,M
Boys,82.1,2,Antwon Ross,Frisco Heritage,81.19,192.78,127.01,217.72,537.51,Single-ply,SBD,M
Boys,82.1,3,Jonathan Lis,Frisco Liberty,79.61,204.12,113.4,213.19,530.7,Single-ply,SBD,M
Boys,82.1,4,Ty Martin,Frisco Reedy,78.74,226.8,120.2,172.37,519.36,Single-ply,SBD,M
Boys,82.1,5,Ethan Harrison,Frisco Memorial,80.65,206.38,120.2,185.97,512.56,Single-ply,SBD,M
Boys,82.1,6,Murphy Roberts,Frisco Independence,81.15,197.31,131.54,183.7,512.56,Single-ply,SBD,M
Boys,82.1,7,Mitchell Hawk,Frisco Independence,81.69,176.9,127.01,181.44,485.34,Single-ply,SBD,M
Boys,82.1,8,Colton Doggett,Frisco Wakeland,77.84,161.03,108.86,197.31,467.2,Single-ply,SBD,M
Boys,82.1,9,Jaden Paige,Frisco Wakeland,79.38,188.24,97.52,174.63,460.4,Single-ply,SBD,M
Boys,82.1,10,Louis Sabatino,Frisco Wakeland,79.38,158.76,117.93,176.9,453.59,Single-ply,SBD,M
Boys,82.1,11,Daniel Ajayi,Frisco Liberty,82.05,174.63,92.99,176.9,444.52,Single-ply,SBD,M
Boys,82.1,12,Nathan Slabberts,Frisco,80.88,106.59,72.57,127.01,306.17,Single-ply,SBD,M
Boys,82.1,13,Harsh Patel,Frisco,78.47,99.79,81.65,115.67,297.1,Single-ply,SBD,M
Boys,82.1,14,Alec Zorrilla,Frisco Lebanon Trail,81.28,149.69,,,149.69,Single-ply,S,M
Boys,89.81,1,Ben Perry,Frisco Independence,88.31,210.92,104.33,195.04,510.29,Single-ply,SBD,M
Boys,89.81,2,Diego Diaz,Frisco Memorial,85.87,190.51,117.93,192.78,501.22,Single-ply,SBD,M
Boys,89.81,3,Robbie Wilkins,Frisco Wakeland,86.18,185.97,113.4,190.51,489.88,Single-ply,SBD,M
Boys,89.81,4,Johnny Holland,Frisco Centennial,84.1,179.17,111.13,197.31,487.61,Single-ply,SBD,M
Boys,89.81,5,Kyle Ferry,Frisco Lebanon Trail,83.78,183.7,113.4,176.9,474,Single-ply,SBD,M
Boys,89.81,6,Rey Reed,Frisco Lone Star,87.95,179.17,104.33,181.44,464.93,Single-ply,SBD,M
Boys,89.81,7,Roman Knautz,Frisco Lebanon Trail,83.05,163.29,97.52,188.24,449.06,Single-ply,SBD,M
Boys,89.81,8,Freddie Jimenez,Frisco Memorial,87.41,163.29,97.52,181.44,442.25,Single-ply,SBD,M
Boys,89.81,9,Madhurian Selva,Frisco Liberty,85.73,133.81,72.57,145.15,351.53,Single-ply,SBD,M
Boys,89.81,10,Yousuf Durrani,Frisco Memorial,88.72,108.86,56.7,133.81,299.37,Single-ply,SBD,M
Boys,89.81,11,Aiden Reiter,Frisco Lebanon Trail,88.18,183.7,,,183.7,Single-ply,S,M
Boys,89.81,12,Nico Annello,Frisco,82.87,120.2,,,120.2,Single-ply,S,M
Boys,89.81,DQ,Peyton Cox,Frisco,88.72,,,,,Single-ply,S,M
Boys,99.79,1,Hudson Halbert,Frisco Reedy,98.02,249.48,154.22,229.06,632.76,Single-ply,SBD,M
Boys,99.79,2,Durga Kaveti,Frisco Independence,99.7,235.87,142.88,204.12,582.87,Single-ply,SBD,M
Boys,99.79,3,Kamari Wilkerson,Frisco,94.12,235.87,124.74,219.99,580.6,Single-ply,SBD,M
Boys,99.79,4,Jaylan Ford,Frisco Lone Star,94.39,222.26,113.4,176.9,512.56,Single-ply,SBD,M
Boys,99.79,5,Matthew Hutto,Frisco Centennial,94.8,197.31,115.67,188.24,501.22,Single-ply,SBD,M
Boys,99.79,6,Kenmunta Miller,Frisco,98.57,188.24,106.59,195.04,489.88,Single-ply,SBD,M
Boys,99.79,7,Garrett Spangler,Frisco Centennial,92.76,199.58,111.13,170.1,480.81,Single-ply,SBD,M
Boys,99.79,8,Chase Dogan,Frisco Lebanon Trail,95.57,176.9,108.86,190.51,476.27,Single-ply,SBD,M
Boys,99.79,9,Numair Baig,Frisco Memorial,97.75,174.63,92.99,174.63,442.25,Single-ply,SBD,M
Boys,99.79,10,Joseph Hancock,Frisco Liberty,93.3,181.44,74.84,172.37,428.64,Single-ply,SBD,M
Boys,99.79,11,Sean Kernohan,Frisco Memorial,92.62,161.03,83.91,161.03,405.97,Single-ply,SBD,M
Boys,99.79,12,Jackson Baker,Frisco,91.63,145.15,102.06,142.88,390.09,Single-ply,SBD,M
Boys,99.79,13,Preston Murphy,Frisco Centennial,95.66,183.7,122.47,,306.17,Single-ply,SB,M
Boys,99.79,DQ,Luke Hillrichs,Frisco Wakeland,99.11,,,,,Single-ply,SB,M
Boys,109.77,1,Clay Patterson,Frisco Reedy,106.28,249.48,154.22,256.28,659.98,Single-ply,SBD,M
Boys,109.77,2,Will Harbour,Frisco Reedy,106.19,238.14,158.76,226.8,623.69,Single-ply,SBD,M
Boys,109.77,3,Cameron Rose,Frisco Heritage,106.64,258.55,140.61,219.99,619.15,Single-ply,SBD,M
Boys,109.77,4,Mason Horton,Frisco Lone Star,103.92,215.46,131.54,215.46,562.45,Single-ply,SBD,M
Boys,109.77,5,David Ngegwe,Frisco Lone Star,106.1,204.12,129.27,226.8,560.19,Single-ply,SBD,M
Boys,109.77,6,Troy Parker,Frisco Centennial,102.6,206.38,131.54,213.19,551.11,Single-ply,SBD,M
Boys,109.77,7,Jack Karhu,Frisco Independence,108.36,215.46,120.2,210.92,546.58,Single-ply,SBD,M
Boys,109.77,8,Noah Pitman,Frisco Centennial,107.82,195.04,136.08,183.7,514.83,Single-ply,SBD,M
Boys,109.77,9,Josh Hammil,Frisco Wakeland,100.06,179.17,120.2,190.51,489.88,Single-ply,SBD,M
Boys,109.77,10,Logan Butler,Frisco Memorial,108.54,195.04,102.06,192.78,489.88,Single-ply,SBD,M
Boys,109.77,11,Omar Ilyas,Frisco Memorial,107.91,167.83,95.25,174.63,437.72,Single-ply,SBD,M
Boys,109.77,12,Braden Uhlmann,Frisco Memorial,104.14,151.95,104.33,156.49,412.77,Single-ply,SBD,M
Boys,109.77,13,Josh Lee,Frisco Liberty,105.41,149.69,97.52,147.42,394.63,Single-ply,SBD,M
Boys,109.77,14,Greer Rush,Frisco,109.5,129.27,102.06,158.76,390.09,Single-ply,SBD,M
Boys,124.74,1,Brandon McClarnon,Frisco Centennial,116.21,244.94,142.88,204.12,591.94,Single-ply,SBD,M
Boys,124.74,2,Nathan Deason,Frisco Lone Star,119.39,208.65,102.06,190.51,501.22,Single-ply,SBD,M
Boys,124.74,3,Aj Magallanes,Frisco Heritage,113.17,179.17,122.47,181.44,483.08,Single-ply,SBD,M
Boys,124.74,4,Dylan Rock,Frisco Heritage,113.35,151.95,97.52,156.49,405.97,Single-ply,SBD,M
Boys,124.74,5,Xander Morganroth,Frisco Liberty,119.25,140.61,99.79,154.22,394.63,Single-ply,SBD,M
Boys,124.74,6,Andrew Magana,Frisco,121.43,181.44,,,181.44,Single-ply,S,M
Boys,124.74,DQ,Darren Dahleiden,Frisco Heritage,114.8,,,,,Single-ply,S,M
Boys,124.74+,1,Izeya Floyd,Frisco Reedy,153.99,347,192.78,288.03,827.81,Single-ply,SBD,M
Boys,124.74+,2,Myron Huff,Frisco Liberty,150.37,244.94,151.95,204.12,601.01,Single-ply,SBD,M
Boys,124.74+,3,Tyler McKinnie,Frisco Independence,127.5,183.7,113.4,161.03,458.13,Single-ply,SBD,M
Boys,124.74+,4,Paul Montemayor,Frisco Independence,128.41,136.08,77.11,140.61,353.8,Single-ply,SBD,M
Boys,124.74+,5,Logan Radmore,Frisco Centennial,124.78,158.76,122.47,,281.23,Single-ply,SB,M
