Division,WeightClassKg,Place,Name,Team,BodyweightKg,Best3SquatKg,Best3BenchKg,Best3DeadliftKg,TotalKg,Equipment,Event,Sex
Boys,51.71,1,Cameron Sams,Lorena,50.98,115.67,61.23,108.86,285.76,Single-ply,SBD,M
Boys,55.79,1,Hunter Dudley,Normangee,54.88,140.61,88.45,140.61,369.68,Single-ply,SBD,M
Boys,55.79,2,Jeran Schaedler,Centerville,53.52,83.91,70.31,102.06,256.28,Single-ply,SBD,M
Boys,55.79,DQ,Michael Hill,Normangee,55.34,136.08,88.45,,,Single-ply,SBD,M
Boys,59.87,1,Haydon Isbell,Teague,58.97,142.88,88.45,158.76,390.09,Single-ply,SBD,M
Boys,59.87,2,Carson Sifford,Teague,56.61,127.01,56.7,124.74,308.44,Single-ply,SBD,M
Boys,59.87,3,Caden Crenshaw,Lorena,58.97,117.93,54.43,127.01,299.37,Single-ply,SBD,M
Boys,59.87,4,Brady Minter,Centerville,58.06,92.99,68.04,115.67,276.69,Single-ply,SBD,M
Boys,67.13,1,Harris Sherrod,Jewett Leon,65.68,204.12,108.86,215.46,528.44,Single-ply,SBD,M
Boys,67.13,2,Desmond Walls,Madisonville,62.64,145.15,104.33,197.31,446.79,Single-ply,SBD,M
Boys,67.13,3,Tyler Evans,Franklin,67.13,151.95,95.25,140.61,387.82,Single-ply,SBD,M
Boys,67.13,4,Eli Parker,Centerville,62.6,129.27,92.99,161.03,383.29,Single-ply,SBD,M
Boys,67.13,5,Justin Smith,Franklin,60.78,124.74,74.84,170.1,369.68,Single-ply,SBD,M
Boys,67.13,6,Shawn Gustavus,Franklin,66.68,138.35,83.91,138.35,360.61,Single-ply,SBD,M
Boys,67.13,7,Brent Hubbell,Centerville,63.05,129.27,86.18,138.35,353.8,Single-ply,SBD,M
Boys,67.13,8,Daniel Villareal,Centerville,62.14,127.01,77.11,124.74,328.85,Single-ply,SBD,M
Boys,67.13,9,Landon Ford,Lorena,63.05,115.67,54.43,113.4,283.5,Single-ply,SBD,M
Boys,74.84,1,Jeremy Flake,Jewett Leon,72.03,161.03,104.33,172.37,437.72,Single-ply,SBD,M
Boys,74.84,2,Jacob Shuler,Normangee,70.31,151.95,97.52,151.95,401.43,Single-ply,SBD,M
Boys,74.84,3,Luis Guillen,Jewett Leon,71.76,142.88,72.57,183.7,399.16,Single-ply,SBD,M
Boys,74.84,4,Matthew Eason,Madisonville,68.95,113.4,97.52,158.76,369.68,Single-ply,SBD,M
Boys,74.84,5,Tanner Dannahoe,Normangee,68.49,120.2,79.38,165.56,365.14,Single-ply,SBD,M
Boys,74.84,6,Harrison Hobbs,Centerville,72.12,113.4,70.31,133.81,317.51,Single-ply,SBD,M
Boys,74.84,DQ,Patrick Brazzell,Madisonville,68.95,145.15,,158.76,,Single-ply,SBD,M
Boys,82.1,1,Justin Bowen,Centerville,79.38,183.7,124.74,183.7,492.15,Single-ply,SBD,M
Boys,82.1,2,Kobi Lee,Normangee,81.65,174.63,115.67,192.78,483.08,Single-ply,SBD,M
Boys,82.1,3,Asa Surface,Madisonville,76.2,165.56,106.59,199.58,471.74,Single-ply,SBD,M
Boys,82.1,4,Joe Squiers,Franklin,82.1,165.56,111.13,158.76,435.45,Single-ply,SBD,M
Boys,82.1,5,Cameron Aldridge,Jewett Leon,81.56,154.22,102.06,176.9,433.18,Single-ply,SBD,M
Boys,82.1,6,Reed Michna,Lorena,77.02,149.69,79.38,154.22,383.29,Single-ply,SBD,M
Boys,82.1,7,Russell Stegall,Franklin,77.56,138.35,88.45,145.15,371.95,Single-ply,SBD,M
Boys,82.1,8,Jaice Blancett,Lorena,80.65,136.08,79.38,136.08,351.53,Single-ply,SBD,M
Boys,82.1,9,Michael Locke,Centerville,75.75,106.59,61.23,102.06,269.89,Single-ply,SBD,M
Boys,89.81,1,Azaya Patrick,Teague,85.91,238.14,124.74,204.12,566.99,Single-ply,SBD,M
Boys,89.81,2,Walter Beltran,Jewett Leon,84.46,204.12,108.86,215.46,528.44,Single-ply,SBD,M
Boys,89.81,3,Cade Michna,Lorena,86.23,183.7,124.74,199.58,508.02,Single-ply,SBD,M
Boys,89.81,4,Curtis Stanford,Jewett Leon,87,154.22,124.74,174.63,453.59,Single-ply,SBD,M
Boys,89.81,5,Jacob Turley,Lorena,84.55,172.37,95.25,149.69,417.3,Single-ply,SBD,M
Boys,89.81,6,Cade Colwell,Madisonville,87.09,156.49,83.91,170.1,410.5,Single-ply,SBD,M
Boys,99.79,1,Micheil Harrell,Madisonville,96.52,204.12,129.27,210.92,544.31,Single-ply,SBD,M
Boys,99.79,2,Ethan Williams,Madisonville,91.99,188.24,111.13,208.65,508.02,Single-ply,SBD,M
Boys,99.79,3,Tim Swonke,Madisonville,95.71,172.37,104.33,170.1,446.79,Single-ply,SBD,M
Boys,99.79,4,Nick Ucci,Jewett Leon,97.16,163.29,102.06,181.44,446.79,Single-ply,SBD,M
Boys,99.79,5,Kobe LeBreche,Franklin,92.99,167.83,108.86,165.56,442.25,Single-ply,SBD,M
Boys,99.79,6,Joseph Vega,Franklin,92.53,158.76,102.06,172.37,433.18,Single-ply,SBD,M
Boys,99.79,7,Ki'Vycia Purvis,Madisonville,92.03,165.56,83.91,176.9,426.38,Single-ply,SBD,M
Boys,99.79,8,Casey Diserens,Lorena,92.8,142.88,81.65,154.22,378.75,Single-ply,SBD,M
Boys,99.79,DQ,Jumno Chhoy,Jewett Leon,96.07,129.27,,154.22,,Single-ply,SBD,M
Boys,109.77,1,Cody Duewall,Franklin,108.41,195.04,127.01,170.1,492.15,Single-ply,SBD,M
Boys,109.77,2,Elijah Turley,Lorena,106.41,124.74,61.23,136.08,322.05,Single-ply,SBD,M
Boys,109.77,DQ,Cody Thorne,Lorena,106.41,,90.72,158.76,,Single-ply,SBD,M
Boys,124.74,1,Korey Grisham,Centerville,116.57,265.35,174.63,260.82,700.8,Single-ply,SBD,M
Boys,124.74,2,Bj Kelly,Centerville,114.76,183.7,136.08,183.7,503.49,Single-ply,SBD,M
Boys,124.74,3,Terry Reel,Teague,120.47,195.04,111.13,183.7,489.88,Single-ply,SBD,M
Boys,124.74,4,Al Angeles,Madisonville,114.94,163.29,108.86,199.58,471.74,Single-ply,SBD,M
Boys,124.74+,1,Q'Narius Butcher,Madisonville,134.72,204.12,90.72,172.37,467.2,Single-ply,SBD,M
Boys,124.74+,2,Dillon Brent,Centerville,128.82,142.88,124.74,183.7,451.32,Single-ply,SBD,M
