Division,WeightClassKg,Place,Name,Team,BodyweightKg,Best3SquatKg,Best3BenchKg,Best3DeadliftKg,TotalKg,Equipment,Event,Sex
Boys,51.71,1,Jesse Peacock,Diana New Diana,50.26,131.54,90.72,149.69,371.95,Single-ply,SBD,M
Boys,51.71,2,Noah Vasquez,Palmer,50.08,129.27,81.65,138.35,349.27,Single-ply,SBD,M
Boys,51.71,3,Jeremiah Carino,Ladonia Fannindel,51.35,131.54,63.5,147.42,342.46,Single-ply,SBD,M
Boys,51.71,4,Nate Mendoza,Kemp,51.62,133.81,61.23,145.15,340.19,Single-ply,SBD,M
Boys,51.71,5,Braden Fears,White Oak,51.71,124.74,72.57,138.35,335.66,Single-ply,SBD,M
Boys,51.71,6,Seth Shipp,Rice,51.71,127.01,81.65,122.47,331.12,Single-ply,SBD,M
Boys,51.71,7,Layton Noey,Normangee,50.53,108.86,63.5,140.61,312.98,Single-ply,SBD,M
Boys,51.71,8,Bob Hernandez,Malakoff Cross Roads,50.44,102.06,61.23,124.74,288.03,Single-ply,SBD,M
Boys,51.71,DQ,Coleman Hardin,Frankston,51.71,124.74,,,,Single-ply,SBD,M
Boys,51.71,DQ,Craig Ballew,Overton,50.89,,,,,Single-ply,SBD,M
Boys,51.71,DQ,Ethan Stack,Scurry-Rosser,50.62,124.74,74.84,,,Single-ply,SBD,M
Boys,55.79,1,Richard Lowrie,Kemp,53.98,158.76,92.99,149.69,401.43,Single-ply,SBD,M
Boys,55.79,2,Brodie Cantu,Dawson,55.79,140.61,86.18,145.15,371.95,Single-ply,SBD,M
Boys,55.79,3,Tristian Castillo,Eustace,54.88,142.88,83.91,140.61,367.41,Single-ply,SBD,M
Boys,55.79,4,Joseph Tarver,Joaquin,55.79,147.42,83.91,124.74,356.07,Single-ply,SBD,M
Boys,55.79,5,Bradley Norton,Queen City,54.61,138.35,68.04,147.42,353.8,Single-ply,SBD,M
Boys,55.79,6,Corbin Donoho,Corsicana Mildred,55.79,122.47,70.31,136.08,328.85,Single-ply,SBD,M
Boys,55.79,7,Bobby Sanchez,Centerville,54.52,129.27,61.23,133.81,324.32,Single-ply,SBD,M
Boys,55.79,8,Zach Grabanski,Pattonville Prairiland,54.61,120.2,65.77,115.67,301.64,Single-ply,SBD,M
Boys,55.79,DQ,Lucas Zepeda,Red Oak Life,54.79,124.74,65.77,,,Single-ply,SBD,M
Boys,55.79,DQ,Travis Berryhill,Blooming Grove,55.07,,,,,Single-ply,SBD,M
Boys,55.79,DQ,Marcos Dominguez,Buffalo,55.79,,,,,Single-ply,SBD,M
Boys,59.87,1,Jordan Ramirez,Palmer,59.06,170.1,92.99,183.7,446.79,Single-ply,SBD,M
Boys,59.87,2,Ryan Fincher,Queen City,58.97,163.29,92.99,167.83,424.11,Single-ply,SBD,M
Boys,59.87,3,JJ Jones,Waskom,59.87,158.76,90.72,172.37,421.84,Single-ply,SBD,M
Boys,59.87,4,Kevin Chavez,Laird Hill Leveretts Chapel,59.69,154.22,90.72,174.63,419.57,Single-ply,SBD,M
Boys,59.87,5,Ryan Laborde,Winnsboro,58.97,156.49,88.45,167.83,412.77,Single-ply,SBD,M
Boys,59.87,6,Kris Jordan,Trinity,59.78,156.49,102.06,154.22,412.77,Single-ply,SBD,M
Boys,59.87,7,Jalil Muhammed,Teague,57.7,149.69,83.91,163.29,396.89,Single-ply,SBD,M
Boys,59.87,8,Jacob Easley,Pollok Central,59.42,151.95,90.72,151.95,394.63,Single-ply,SBD,M
Boys,59.87,9,Tramaine Butler,Waskom,59.6,140.61,90.72,163.29,394.63,Single-ply,SBD,M
Boys,59.87,10,William Ferlet,Dawson,59.24,136.08,86.18,158.76,381.02,Single-ply,SBD,M
Boys,59.87,11,Chase Kirby,Dawson,59.06,136.08,83.91,154.22,374.21,Single-ply,SBD,M
Boys,59.87,12,Josh Williams,Troup,59.51,151.95,61.23,158.76,371.95,Single-ply,SBD,M
Boys,59.87,DQ,Jared Weeks,Diana New Diana,59.6,142.88,83.91,,,Single-ply,SBD,M
Boys,67.13,1,Dylan Gibson,Maud,65.5,204.12,106.59,204.12,514.83,Single-ply,SBD,M
Boys,67.13,2,Matthew Rumbaugh,Commerce,65.41,208.65,90.72,210.92,510.29,Single-ply,SBD,M
Boys,67.13,3,Taylor Ibarra,Mount Vernon,66.04,195.04,108.86,197.31,501.22,Single-ply,SBD,M
Boys,67.13,4,Lucas Pinnell,Winnsboro,66.77,174.63,92.99,208.65,476.27,Single-ply,SBD,M
Boys,67.13,5,Brayden Lopez,Commerce,65.77,181.44,108.86,183.7,474,Single-ply,SBD,M
Boys,67.13,6,Stone Crisp,Elysian Fields,65.68,172.37,99.79,185.97,458.13,Single-ply,SBD,M
Boys,67.13,7,Miles Pearson,Diana New Diana,64.68,165.56,99.79,190.51,455.86,Single-ply,SBD,M
Boys,67.13,8,David Dilbeck,Blooming Grove,65.86,161.03,108.86,185.97,455.86,Single-ply,SBD,M
Boys,67.13,9,Parker Hay,Trinity,66.22,176.9,92.99,179.17,449.06,Single-ply,SBD,M
Boys,67.13,10,Jason Jinks,Waskom,66.77,156.49,90.72,181.44,428.64,Single-ply,SBD,M
Boys,67.13,DQ,Fabian Roman,Quitman,66.04,,,,,Single-ply,SBD,M
Boys,67.13,DQ,Mauro Gallegos,Gladewater Sabine,65.41,,,,,Single-ply,SBD,M
Boys,74.84,1,Eric Shaw,Lone Oak,72.85,217.72,145.15,190.51,553.38,Single-ply,SBD,M
Boys,74.84,2,Justin Griffin,Eustace,71.12,219.99,122.47,204.12,546.58,Single-ply,SBD,M
Boys,74.84,3,Leo Guerrero,Trinity,72.3,197.31,122.47,224.53,544.31,Single-ply,SBD,M
Boys,74.84,4,Jonathan Spurlin,Winnsboro,73.94,199.58,124.74,204.12,528.44,Single-ply,SBD,M
Boys,74.84,5,Quentin Parks,Eustace,74.66,213.19,115.67,197.31,526.17,Single-ply,SBD,M
Boys,74.84,6,Redhorse Warren,Palestine Westwood,73.12,192.78,115.67,204.12,512.56,Single-ply,SBD,M
Boys,74.84,7,Sergio Villareal,Centerville,69.67,204.12,111.13,192.78,508.02,Single-ply,SBD,M
Boys,74.84,8,Sammy Servantes,Buffalo,74.03,183.7,111.13,213.19,508.02,Single-ply,SBD,M
Boys,74.84,9,Jacob McClean,Scurry-Rosser,72.21,201.85,120.2,183.7,505.76,Single-ply,SBD,M
Boys,74.84,DQ,Abraham Sanchez,Centerville,73.03,163.29,,,,Single-ply,SBD,M
Boys,74.84,DQ,Michael Jones,Elkhart,70.58,192.78,111.13,,,Single-ply,SBD,M
Boys,82.1,1,Cameron Riess,Grapeland,80.1,249.48,142.88,219.99,612.35,Single-ply,SBD,M
Boys,82.1,2,Cercharvic Berry,San Augustine,79.2,226.8,133.81,233.6,594.21,Single-ply,SBD,M
Boys,82.1,3,Manny Urbina,De Kalb,81.56,238.14,147.42,208.65,594.21,Single-ply,SBD,M
Boys,82.1,4,Michael Champion,Commerce,80.92,249.48,108.86,226.8,585.13,Single-ply,SBD,M
Boys,82.1,5,Alan Quezada,Kemp,79.83,231.33,142.88,208.65,582.87,Single-ply,SBD,M
Boys,82.1,6,Aaron Ratliff,Normangee,81.65,217.72,136.08,226.8,580.6,Single-ply,SBD,M
Boys,82.1,7,Blaine Jarrett,Caddo Mills,79.29,215.46,127.01,235.87,578.33,Single-ply,SBD,M
Boys,82.1,8,Alex Thlang,Elkhart,76.48,235.87,136.08,204.12,576.06,Single-ply,SBD,M
Boys,82.1,9,Keenan Hargest,Eustace,78.74,219.99,120.2,235.87,576.06,Single-ply,SBD,M
Boys,82.1,10,Jake Hibdon,Kemp,80.2,217.72,147.42,204.12,569.26,Single-ply,SBD,M
Boys,82.1,DQ,Hector Dominguez,Buffalo,78.56,222.26,113.4,,,Single-ply,SBD,M
Boys,82.1,DQ,Jett Bollinger,Pollok Central,80.1,229.06,127.01,,,Single-ply,SBD,M
Boys,89.81,1,Zack Gray,Elkhart,86.73,265.35,142.88,244.94,653.17,Single-ply,SBD,M
Boys,89.81,2,Grant Stansberry,Gladewater Sabine,85.73,238.14,147.42,226.8,612.35,Single-ply,SBD,M
Boys,89.81,3,Logan Blake,Red Oak Life,87.63,244.94,149.69,190.51,585.13,Single-ply,SBD,M
Boys,89.81,4,Gavin DeFore,Elkhart,88.72,210.92,147.42,215.46,573.79,Single-ply,SBD,M
Boys,89.81,5,Tyler Cheves,Mount Vernon,88.09,219.99,131.54,204.12,555.65,Single-ply,SBD,M
Boys,89.81,6,Cer'Charvis Berry,San Augustine,82.74,222.26,138.35,192.78,553.38,Single-ply,SBD,M
Boys,89.81,7,Daniel Carter,Winona,88.09,190.51,145.15,208.65,544.31,Single-ply,SBD,M
Boys,89.81,8,Anthony Rose,Jefferson,88.36,222.26,124.74,181.44,528.44,Single-ply,SBD,M
Boys,89.81,DQ,Colton Finney,Redwater,88.36,226.8,124.74,,,Single-ply,SBD,M
Boys,89.81,DQ,Kobi Fort,Detroit,85.73,185.97,133.81,,,Single-ply,SBD,M
Boys,89.81,DQ,Johnny Bustamante,Blooming Grove,87.82,224.53,129.27,,,Single-ply,SBD,M
Boys,89.81,DQ,Taylor Little,Kemp,82.83,215.46,117.93,,,Single-ply,SBD,M
Boys,99.79,1,Andre Agan,Elkhart,95.71,256.28,158.76,233.6,648.64,Single-ply,SBD,M
Boys,99.79,2,Jace Jarvis,Caddo Mills,93.62,244.94,142.88,258.55,646.37,Single-ply,SBD,M
Boys,99.79,3,Traylon Swanson,Elkhart,98.16,263.08,147.42,235.87,646.37,Single-ply,SBD,M
Boys,99.79,4,Reece Clark,Troup,98.25,256.28,147.42,231.33,635.03,Single-ply,SBD,M
Boys,99.79,5,Jaylon Hardeman,Jefferson,91.08,249.48,138.35,226.8,614.62,Single-ply,SBD,M
Boys,99.79,6,Quentin Bowes,Commerce,94.71,222.26,122.47,238.14,582.87,Single-ply,SBD,M
Boys,99.79,7,Erik Rodriguez,Overton,98.52,235.87,113.4,226.8,576.06,Single-ply,SBD,M
Boys,99.79,8,Rowdy Teaff,Quitman,98.16,219.99,127.01,217.72,564.72,Single-ply,SBD,M
Boys,99.79,9,Hunter Harrison,Redwater,97.16,231.33,122.47,204.12,557.92,Single-ply,SBD,M
Boys,99.79,10,Chris Davis,Maud,90.63,197.31,122.47,208.65,528.44,Single-ply,SBD,M
Boys,99.79,11,Austin Jones,Redwater,97.34,199.58,120.2,204.12,523.9,Single-ply,SBD,M
Boys,109.77,1,Matt Coker,Caddo Mills,107.14,285.76,192.78,251.74,730.28,Single-ply,SBD,M
Boys,109.77,2,Chris Bloyd,White Oak,102.42,303.91,179.17,244.94,728.02,Single-ply,SBD,M
Boys,109.77,3,Eli Crawford,Kerens,107.32,285.76,142.88,256.28,684.92,Single-ply,SBD,M
Boys,109.77,4,Marcus Williams,Teague,103.42,249.48,127.01,256.28,632.76,Single-ply,SBD,M
Boys,109.77,5,David Delgado,Kemp,104.87,256.28,154.22,210.92,621.42,Single-ply,SBD,M
Boys,109.77,6,Desavian Crane,San Augustine,108.32,242.67,145.15,233.6,621.42,Single-ply,SBD,M
Boys,109.77,7,Curtis Griggs,Queen City,106.87,217.72,136.08,219.99,573.79,Single-ply,SBD,M
Boys,109.77,8,Glen Bonner,Trinity,102.97,190.51,136.08,210.92,537.51,Single-ply,SBD,M
Boys,109.77,9,James Berry,Maud,105.69,217.72,129.27,190.51,537.51,Single-ply,SBD,M
Boys,109.77,10,Alijuan Rice,Jefferson,105.41,235.87,,,235.87,Single-ply,S,M
Boys,109.77,DQ,Bryton Jimenez,Lone Oak,103.06,,,,,Single-ply,SBD,M
Boys,124.74,1,Ryan Mitchell,Teague,124.65,353.8,210.92,258.55,823.27,Single-ply,SBD,M
Boys,124.74,2,Mikey Grubbs,Mount Enterprise,117.66,288.03,163.29,263.08,714.41,Single-ply,SBD,M
Boys,124.74,3,Josh Porter,Frankston,115.76,263.08,156.49,256.28,675.85,Single-ply,SBD,M
Boys,124.74,4,Malik Benson,Palestine Westwood,114.12,285.76,142.88,240.4,669.05,Single-ply,SBD,M
Boys,124.74,5,Trey Potter,Ore City,122.38,260.82,158.76,226.8,646.37,Single-ply,SBD,M
Boys,124.74,6,Luke Linebaugh,Kemp,116.21,272.16,145.15,226.8,644.1,Single-ply,SBD,M
Boys,124.74,7,Benito Rivas,Buffalo,121.11,226.8,161.03,219.99,607.81,Single-ply,SBD,M
Boys,124.74,8,Alex Sultz,Maud,114.21,272.16,102.06,226.8,601.01,Single-ply,SBD,M
Boys,124.74,DQ,Fili Rincon,Lone Oak,115.48,272.16,,,,Single-ply,SBD,M
Boys,124.74+,1,AJ Garcia,Hughes Springs,161.39,365.14,204.12,249.48,818.73,Single-ply,SBD,M
Boys,124.74+,2,Taylor McBride,Cushing,146.06,326.59,170.1,274.42,771.11,Single-ply,SBD,M
Boys,124.74+,3,Cardrae Brown,Joaquin,155.49,333.39,174.63,217.72,725.75,Single-ply,SBD,M
Boys,124.74+,4,Noah Palmertree,Hughes Springs,125.19,258.55,172.37,240.4,671.32,Single-ply,SBD,M
Boys,124.74+,5,Richard Bennett,Hemphill,132.72,260.82,161.03,233.6,655.44,Single-ply,SBD,M
Boys,124.74+,6,Dalton Hatcher,Scurry-Rosser,169.01,258.55,172.37,213.19,644.1,Single-ply,SBD,M
Boys,124.74+,7,Michael Marshall,Eustace,133.99,265.35,129.27,238.14,632.76,Single-ply,SBD,M
Boys,124.74+,8,Carter Wheat,White Oak,134.44,272.16,127.01,233.6,632.76,Single-ply,SBD,M
Boys,124.74+,9,Joseph Lopez,Kemp,152.23,242.67,158.76,226.8,628.23,Single-ply,SBD,M
Boys,124.74+,10,Jake Cox,Pollok Central,131,240.4,122.47,226.8,589.67,Single-ply,SBD,M
Boys,,NS,Eric Hernandez,New London West Rusk,,,,,,Single-ply,SBD,M
Boys,,NS,Grant Farley,Quinlan Boles,,,,,,Single-ply,SBD,M
Boys,,NS,Brandon Gillen,Paris Chisum,,,,,,Single-ply,SBD,M
Boys,,NS,James McIntyre,Milford,,,,,,Single-ply,SBD,M
Boys,,NS,Sammy Palma,Grand Saline,,,,,,Single-ply,SBD,M
Boys,,NS,Roland Stevens,Grand Saline,,,,,,Single-ply,SBD,M
Boys,,NS,Garrett Barnes,Grand Saline,,,,,,Single-ply,SBD,M
Boys,,NS,Sean Stuck,Big Sandy,,,,,,Single-ply,SBD,M
Boys,,NS,Jarvis Arnold,De Kalb,,,,,,Single-ply,SBD,M
Boys,,NS,Riley Russell,Bogata Rivercrest,,,,,,Single-ply,SBD,M
Boys,,NS,Brandon Alvarez,Bogata Rivercrest,,,,,,Single-ply,SBD,M
Boys,,NS,Austin Morgan,Commerce,,,,,,Single-ply,SBD,M
