Name,Place,Sex,Equipment,Division,WeightClassKg,BodyweightKg,Age,Event,Best3SquatKg,Squat4Kg,Best3BenchKg,Bench4Kg,Best3DeadliftKg,Deadlift4Kg,TotalKg
Shelby Lopez,1,F,Raw,Juniors 20-23,48,45.81,13,SBD,55,,37.5,,85,,177.5
Natasha Mendoza,1,F,Raw,Juniors 20-23,56,55.61,17,SBD,55,,30,,62.5,,147.5
Nicole Stevens,1,F,Raw,Juniors 20-23,60,58.6,16,SBD,70,77.5,42.5,,107.5,,220
Margie Rodgers,1,F,Raw,Open,67.5,63.59,25,SBD,100.5,,63,65,102.5,,266
Mie Hartmann,DQ,F,Raw,Masters,67.5,62.96,42,SBD,80,,55,,-87.5,,
Lynne Castellanos,1,F,Raw,Masters,67.5,66.41,52,SBD,60,,45,,127.5,,232.5
Margarita Salas,1,F,Raw,Masters,82.5,76.57,49,SBD,70,,47.5,,105,,222.5
Andres Huizar,1,M,Raw,Juniors 20-23,60,58.06,21,SBD,90,,102.5,,145,152.5,337.5
Andrew McCombs,1,M,Raw,Juniors 20-23,67.5,62.32,22,SBD,102.5,,105,,150,160,357.5
Richard Stevens,1,M,Raw,Juniors 20-23,75,73.3,18,SBD,100,,92.5,,152.5,,345
Brian Lopez,1,M,Raw,Juniors 20-23,75,70.13,21,SBD,125,,95,,167.5,,387.5
Leonardo Mercado-Padilla,1,M,Raw,Juniors 20-23,82.5,81.28,21,SBD,137.5,,92.5,,182.5,,412.5
Adolfo Funtes,1,M,Raw,Juniors 20-23,90,85.37,18,SBD,135,,97.5,,182.5,,415
Mike Turner,1,M,Raw,Juniors 20-23,90,86.36,22,SBD,135,,95,,172.5,,402.5
Dillon Morgan,1,M,Raw,Juniors 20-23,100,95.25,18,SBD,185,,130,,170,,485
Ben Hirsch,1,M,Raw,Juniors 20-23,100,96.71,21,SBD,182.5,,120,,227.5,,530
Matthew Troxell,2,M,Raw,Juniors 20-23,100,91.72,22,SBD,127.5,,102.5,,187.5,,417.5
Zachary Hunter Jr,3,M,Raw,Juniors 20-23,100,92.99,23,SBD,127.5,,105,,167.5,,400
Joshua Camp,1,M,Raw,Juniors 20-23,110,107.41,21,SBD,153,,107.5,,202.5,,463
Michael Craddock,1,M,Raw,Open,75,69.49,24,SBD,122.5,,85,,190,,397.5
Steve Melero,1,M,Raw,Open,82.5,79.38,29,SBD,182.5,,132.5,,237.5,,552.5
Keith Richards,2,M,Raw,Open,82.5,81.19,25,SBD,185,,115,,210,,510
Wes Rodgers,3,M,Raw,Open,82.5,76.38,25,SBD,150,,147.5,153,187.5,,485
Robby McLaughlin,1,M,Raw,Open,90,87.18,25,SBD,200,,195,,240,,635
Mike Dunlap,1,M,Raw,Open,100,96.71,26,SBD,185,,145,,225,,555
Eloy Moreno,2,M,Raw,Open,100,97.16,31,SBD,130,,140,,150,,420
Jeremy Denison,1,M,Raw,Open,110,107.86,30,SBD,227.5,,157.5,,247.5,,632.5
Joshua Hyman,1,M,Raw,Submasters 35-39,90,88.99,37,SBD,142.5,,112.5,,220,,475
Jonathan Alvarado,1,M,Single-ply,Juniors 20-23,100,98.79,17,SBD,182.5,,107.5,,162.5,,452.5
Patrick Voosen,1,M,Single-ply,Juniors 20-23,100,98.7,23,SBD,290,,195,,207.5,,692.5
Rupert Prout,2,M,Single-ply,Juniors 20-23,100,98.97,20,SBD,200,,147.5,,272.5,,620
James Simmons,1,M,Single-ply,Open,90,87.36,31,SBD,262.5,,182.5,,265,,710
Brian Kiraly,2,M,Single-ply,Open,90,85.46,31,SBD,252.5,,170,,275,,697.5
Louis Camassa,3,M,Wraps,Open,90,89.18,30,SBD,210,,137.5,,247.5,,595
Ian Smalley,4,M,Wraps,Open,90,86.64,34,SBD,212.5,,150,,227.5,,590
Chris Bartl,1,M,Single-ply,Open,110,108.23,33,SBD,280,,215,,272.5,,767.5
Abe Torres,1,M,Single-ply,Open,125,110.13,27,SBD,240,,167.5,,237.5,,645
Isaac Yost,1,M,Single-ply,Submasters 35-39,100,92.99,35,SBD,187.5,,145,,220,227.5,552.5
John Alvarado,1,M,Single-ply,Masters,75,74.93,58,SBD,165,,70,,192.5,,427.5
Neil Fletcher,1,M,Single-ply,Masters,110,105.87,60,SBD,192.5,,147.5,,205,,545
Bill McEwen,1,M,Single-ply,Masters,125,116.03,57,SBD,172.5,,125,,190,,487.5
Dave Dallmeyer,1,M,Single-ply,Masters,140,137.8,62,SBD,205,,140,,245,,590
Judy Camsuzou,1,F,Raw,Open,75,67.86,44,B,,,95,,,,95
Judy Camsuzou,1,F,Raw,Masters,75,67.86,44,B,,,95,,,,95
Robby McLaughlin,1,M,Raw,Open,90,87.18,25,B,,,195,,,,195
Tony Lewelling,1,M,Raw,Masters,100,96.07,52,B,,,175,,,,175
Charles Dedrick,1,M,Raw,Masters,110,103.33,46,B,,,160,,,,160
Ron Moormeister,1,M,Raw,Masters,140,131,64,B,,,195.5,,,,195.5
David Aldrich,DQ,M,Single-ply,Open,90,89.18,35,B,,,-232.5,,,,
Stacy Dedrick,1,M,Single-ply,Open,100,96.98,46,B,,,230,,,,230
David Douglas,DQ,M,Single-ply,Open,140,135.9,24,B,,,-335,,,,
Stacy Dedrick,1,M,Single-ply,Masters,100,96.98,46,B,,,230,,,,230
Ken Tawzer,1,M,Single-ply,Masters,110,107.95,59,B,,,172.5,,,,172.5
Antonio Arana,1,M,Raw,Juniors 20-23,100,90.17,23,D,,,,,142.5,,142.5
Jeff Zarling,1,M,Raw,Open,90,86.91,29,D,,,,,197.5,,197.5
Dan Padilla,1,M,Raw,Open,100,96.43,42,D,,,,,212.5,,212.5
Dan Padilla,1,M,Raw,Masters,100,96.43,42,D,,,,,212.5,,212.5
Athena McCandlish,1,F,Raw,Masters,67.5,61.6,44,BD,,,55,,102.5,,157.5
Kathryn Meglitsch-Tate,DQ,F,Raw,Masters,90,83.01,53,BD,,,-35,,97.5,,
Aaron Dawson,1,M,Raw,Juniors 20-23,82.5,77.84,21,BD,,,92.5,,162.5,,255
